{
    "Name": "Stage Collection",
    "Version": "1.0 Cathy1",
    "Stages": [
        {
            "Name": "Stage",
            "Platforms": [
                {
                    "Name": "Platform",
                    "Position": {
                        "x": 0,
                        "y": 0,
                        "z": 0
                    },
                    "Blocks": [
                        {
                            "Name": "96af4de6-a7d9-4776-9bcc-ee88593ccc6a",
                            "Palette": "Cathy1 Internal",
                            "Type": "Immobile",
                            "Position": {
                                "x": -13,
                                "y": 1,
                                "z": 0
                            },
                            "Properties": [
                                {
                                    "Key": "Motion State",
                                    "Value": "Grounded"
                                },
                                {
                                    "Key": "Weight Factor",
                                    "Value": "0"
                                }
                            ]
                        },
                        {
                            "Name": "449d39f0-fe8f-4105-917e-2ea07daf2199",
                            "Palette": "Cathy1 Internal",
                            "Type": "Immobile",
                            "Position": {
                                "x": -12,
                                "y": 1,
                                "z": 0
                            },
                            "Properties": [
                                {
                                    "Key": "Motion State",
                                    "Value": "Grounded"
                                },
                                {
                                    "Key": "Weight Factor",
                                    "Value": "0"
                                }
                            ]
                        },
                        {
                            "Name": "aded8661-dc9f-4d83-94b3-f2ac46dda691",
                            "Palette": "Cathy1 Internal",
                            "Type": "Immobile",
                            "Position": {
                                "x": -11,
                                "y": 1,
                                "z": 0
                            },
                            "Properties": [
                                {
                                    "Key": "Motion State",
                                    "Value": "Grounded"
                                },
                                {
                                    "Key": "Weight Factor",
                                    "Value": "0"
                                }
                            ]
                        },
                        {
                            "Name": "4003e792-4e94-4667-bdc2-b9ebbb593b4f",
                            "Palette": "Cathy1 Internal",
                            "Type": "Immobile",
                            "Position": {
                                "x": -10,
                                "y": 1,
                                "z": 0
                            },
                            "Properties": [
                                {
                                    "Key": "Motion State",
                                    "Value": "Grounded"
                                },
                                {
                                    "Key": "Weight Factor",
                                    "Value": "0"
                                }
                            ]
                        },
                        {
                            "Name": "4afa623a-02e8-4fb3-b06f-0de18fed449e",
                            "Palette": "Cathy1 Internal",
                            "Type": "Immobile",
                            "Position": {
                                "x": -11,
                                "y": 1,
                                "z": -1
                            },
                            "Properties": [
                                {
                                    "Key": "Motion State",
                                    "Value": "Grounded"
                                },
                                {
                                    "Key": "Weight Factor",
                                    "Value": "0"
                                }
                            ]
                        },
                        {
                            "Name": "1832898f-f2f0-49a5-841e-bbd97176f019",
                            "Palette": "Cathy1 Internal",
                            "Type": "Immobile",
                            "Position": {
                                "x": -12,
                                "y": 1,
                                "z": -1
                            },
                            "Properties": [
                                {
                                    "Key": "Motion State",
                                    "Value": "Grounded"
                                },
                                {
                                    "Key": "Weight Factor",
                                    "Value": "0"
                                }
                            ]
                        },
                        {
                            "Name": "a456eb87-06a9-47a9-a46e-13677365e5d5",
                            "Palette": "Cathy1 Internal",
                            "Type": "Immobile",
                            "Position": {
                                "x": -13,
                                "y": 1,
                                "z": -1
                            },
                            "Properties": [
                                {
                                    "Key": "Motion State",
                                    "Value": "Grounded"
                                },
                                {
                                    "Key": "Weight Factor",
                                    "Value": "0"
                                }
                            ]
                        },
                        {
                            "Name": "310dbd05-2b13-4f65-b8f9-471c42e479e1",
                            "Palette": "Cathy1 Internal",
                            "Type": "Immobile",
                            "Position": {
                                "x": -13,
                                "y": 1,
                                "z": -2
                            },
                            "Properties": [
                                {
                                    "Key": "Motion State",
                                    "Value": "Grounded"
                                },
                                {
                                    "Key": "Weight Factor",
                                    "Value": "0"
                                }
                            ]
                        },
                        {
                            "Name": "dc80c6b6-7258-438b-87db-7870584a762a",
                            "Palette": "Cathy1 Internal",
                            "Type": "Immobile",
                            "Position": {
                                "x": -12,
                                "y": 1,
                                "z": -2
                            },
                            "Properties": [
                                {
                                    "Key": "Motion State",
                                    "Value": "Grounded"
                                },
                                {
                                    "Key": "Weight Factor",
                                    "Value": "0"
                                }
                            ]
                        },
                        {
                            "Name": "c388db73-7ece-4f70-b3b4-b0bf843d91d1",
                            "Palette": "Cathy1 Internal",
                            "Type": "Immobile",
                            "Position": {
                                "x": -11,
                                "y": 1,
                                "z": -2
                            },
                            "Properties": [
                                {
                                    "Key": "Motion State",
                                    "Value": "Grounded"
                                },
                                {
                                    "Key": "Weight Factor",
                                    "Value": "0"
                                }
                            ]
                        },
                        {
                            "Name": "ac64a0df-cdff-4761-a3d4-81652ef6aa0c",
                            "Palette": "Cathy1 Internal",
                            "Type": "Immobile",
                            "Position": {
                                "x": -10,
                                "y": 1,
                                "z": -2
                            },
                            "Properties": [
                                {
                                    "Key": "Motion State",
                                    "Value": "Grounded"
                                },
                                {
                                    "Key": "Weight Factor",
                                    "Value": "0"
                                }
                            ]
                        },
                        {
                            "Name": "962f697d-8382-4118-824e-ce850239312f",
                            "Palette": "Cathy1 Internal",
                            "Type": "Basic",
                            "Position": {
                                "x": -10,
                                "y": 2,
                                "z": -1
                            },
                            "Properties": [
                                {
                                    "Key": "Motion State",
                                    "Value": "Grounded"
                                },
                                {
                                    "Key": "Model Variant",
                                    "Value": "3"
                                }
                            ]
                        },
                        {
                            "Name": "2ddede29-3f73-4650-ae22-d29d4163851d",
                            "Palette": "Cathy1 Internal",
                            "Type": "Immobile",
                            "Position": {
                                "x": -11,
                                "y": 2,
                                "z": -1
                            },
                            "Properties": [
                                {
                                    "Key": "Motion State",
                                    "Value": "Grounded"
                                },
                                {
                                    "Key": "Weight Factor",
                                    "Value": "0"
                                }
                            ]
                        },
                        {
                            "Name": "6201eda1-2287-40fe-93e2-a66137393c29",
                            "Palette": "Cathy1 Internal",
                            "Type": "Basic",
                            "Position": {
                                "x": -12,
                                "y": 2,
                                "z": -1
                            },
                            "Properties": [
                                {
                                    "Key": "Motion State",
                                    "Value": "Grounded"
                                },
                                {
                                    "Key": "Model Variant",
                                    "Value": "3"
                                }
                            ]
                        },
                        {
                            "Name": "4aff7da3-13dd-4afc-9af8-adad6fc9bd84",
                            "Palette": "Cathy1 Internal",
                            "Type": "Immobile",
                            "Position": {
                                "x": -13,
                                "y": 2,
                                "z": -1
                            },
                            "Properties": [
                                {
                                    "Key": "Motion State",
                                    "Value": "Grounded"
                                },
                                {
                                    "Key": "Weight Factor",
                                    "Value": "0"
                                }
                            ]
                        },
                        {
                            "Name": "1ac79df8-1c9b-4ab8-80ca-72d10c559daf",
                            "Palette": "Cathy1 Internal",
                            "Type": "Basic",
                            "Position": {
                                "x": -13,
                                "y": 3,
                                "z": -1
                            },
                            "Properties": [
                                {
                                    "Key": "Motion State",
                                    "Value": "Grounded"
                                },
                                {
                                    "Key": "Model Variant",
                                    "Value": "2"
                                }
                            ]
                        },
                        {
                            "Name": "36d6b0c9-110a-43e8-8e5f-b377aa6b04aa",
                            "Palette": "Cathy1 Internal",
                            "Type": "Immobile",
                            "Position": {
                                "x": -12,
                                "y": 3,
                                "z": -1
                            },
                            "Properties": [
                                {
                                    "Key": "Motion State",
                                    "Value": "Grounded"
                                },
                                {
                                    "Key": "Weight Factor",
                                    "Value": "0"
                                }
                            ]
                        },
                        {
                            "Name": "aea4277e-07b7-4a61-b1b5-9f127c7774e2",
                            "Palette": "Cathy1 Internal",
                            "Type": "Basic",
                            "Position": {
                                "x": -11,
                                "y": 3,
                                "z": -1
                            },
                            "Properties": [
                                {
                                    "Key": "Motion State",
                                    "Value": "Grounded"
                                },
                                {
                                    "Key": "Model Variant",
                                    "Value": "2"
                                }
                            ]
                        },
                        {
                            "Name": "22cc910f-2e76-4aa2-84ae-a52e061a6940",
                            "Palette": "Cathy1 Internal",
                            "Type": "Immobile",
                            "Position": {
                                "x": -10,
                                "y": 3,
                                "z": -1
                            },
                            "Properties": [
                                {
                                    "Key": "Motion State",
                                    "Value": "Grounded"
                                },
                                {
                                    "Key": "Weight Factor",
                                    "Value": "0"
                                }
                            ]
                        },
                        {
                            "Name": "a240afdd-bb6b-41aa-90af-dd70227bfd07",
                            "Palette": "Cathy1 Internal",
                            "Type": "Basic",
                            "Position": {
                                "x": -10,
                                "y": 5,
                                "z": 0
                            },
                            "Properties": [
                                {
                                    "Key": "Motion State",
                                    "Value": "Edged"
                                },
                                {
                                    "Key": "Model Variant",
                                    "Value": "3"
                                }
                            ]
                        },
                        {
                            "Name": "d420a779-8a55-49fe-8e12-dd96283cde91",
                            "Palette": "Cathy1 Internal",
                            "Type": "Basic",
                            "Position": {
                                "x": -10,
                                "y": 4,
                                "z": -1
                            },
                            "Properties": [
                                {
                                    "Key": "Motion State",
                                    "Value": "Grounded"
                                },
                                {
                                    "Key": "Model Variant",
                                    "Value": "3"
                                }
                            ]
                        },
                        {
                            "Name": "0690fbb5-fe7a-4542-900d-e5219943866e",
                            "Palette": "Cathy1 Internal",
                            "Type": "Basic",
                            "Position": {
                                "x": -11,
                                "y": 4,
                                "z": -1
                            },
                            "Properties": [
                                {
                                    "Key": "Motion State",
                                    "Value": "Grounded"
                                },
                                {
                                    "Key": "Model Variant",
                                    "Value": "2"
                                }
                            ]
                        },
                        {
                            "Name": "9f2f1fe4-1542-4061-bf82-882dbf1efd11",
                            "Palette": "Cathy1 Internal",
                            "Type": "Basic",
                            "Position": {
                                "x": -12,
                                "y": 4,
                                "z": -1
                            },
                            "Properties": [
                                {
                                    "Key": "Motion State",
                                    "Value": "Grounded"
                                },
                                {
                                    "Key": "Model Variant",
                                    "Value": "2"
                                }
                            ]
                        },
                        {
                            "Name": "eb240ebd-ab91-4880-bf2b-963f193f49c7",
                            "Palette": "Cathy1 Internal",
                            "Type": "Basic",
                            "Position": {
                                "x": -13,
                                "y": 4,
                                "z": -1
                            },
                            "Properties": [
                                {
                                    "Key": "Motion State",
                                    "Value": "Grounded"
                                },
                                {
                                    "Key": "Model Variant",
                                    "Value": "2"
                                }
                            ]
                        },
                        {
                            "Name": "8ac59ac2-b091-4804-a844-179769a6b0ce",
                            "Palette": "Cathy1 Internal",
                            "Type": "Basic",
                            "Position": {
                                "x": -9,
                                "y": 6,
                                "z": 0
                            },
                            "Properties": [
                                {
                                    "Key": "Motion State",
                                    "Value": "Edged"
                                },
                                {
                                    "Key": "Model Variant",
                                    "Value": "2"
                                }
                            ]
                        },
                        {
                            "Name": "c81987e0-4271-44f4-9d1a-8511389b31ab",
                            "Palette": "Cathy1 Internal",
                            "Type": "Basic",
                            "Position": {
                                "x": -8,
                                "y": 7,
                                "z": 0
                            },
                            "Properties": [
                                {
                                    "Key": "Motion State",
                                    "Value": "Edged"
                                },
                                {
                                    "Key": "Model Variant",
                                    "Value": "2"
                                }
                            ]
                        },
                        {
                            "Name": "993fd2e2-ca09-441c-a600-52af8594c353",
                            "Palette": "Cathy1 Internal",
                            "Type": "Basic",
                            "Position": {
                                "x": -7,
                                "y": 8,
                                "z": 0
                            },
                            "Properties": [
                                {
                                    "Key": "Motion State",
                                    "Value": "Edged"
                                },
                                {
                                    "Key": "Model Variant",
                                    "Value": "3"
                                }
                            ]
                        },
                        {
                            "Name": "804e4f57-3573-444b-a89a-791c30a4831c",
                            "Palette": "Cathy1 Internal",
                            "Type": "Immobile",
                            "Position": {
                                "x": -4,
                                "y": 1,
                                "z": 0
                            },
                            "Properties": [
                                {
                                    "Key": "Motion State",
                                    "Value": "Grounded"
                                },
                                {
                                    "Key": "Weight Factor",
                                    "Value": "0"
                                }
                            ]
                        },
                        {
                            "Name": "67bdc1f9-43f7-460a-94b7-264c1403a825",
                            "Palette": "Cathy1 Internal",
                            "Type": "Cracked (2 Steps)",
                            "Position": {
                                "x": -3,
                                "y": 1,
                                "z": -1
                            },
                            "Properties": [
                                {
                                    "Key": "Motion State",
                                    "Value": "Grounded"
                                },
                                {
                                    "Key": "Model Variant",
                                    "Value": "2"
                                },
                                {
                                    "Key": "Steps Remaining",
                                    "Value": "2"
                                }
                            ]
                        },
                        {
                            "Name": "86e3973d-3681-47e3-b326-f3ae8b905409",
                            "Palette": "Cathy1 Internal",
                            "Type": "Cracked (2 Steps)",
                            "Position": {
                                "x": -2,
                                "y": 1,
                                "z": -1
                            },
                            "Properties": [
                                {
                                    "Key": "Motion State",
                                    "Value": "Grounded"
                                },
                                {
                                    "Key": "Model Variant",
                                    "Value": "2"
                                },
                                {
                                    "Key": "Steps Remaining",
                                    "Value": "2"
                                }
                            ]
                        },
                        {
                            "Name": "ca77f2a2-ad23-4d62-9bc6-5cf63ddb2474",
                            "Palette": "Cathy1 Internal",
                            "Type": "Cracked (2 Steps)",
                            "Position": {
                                "x": -1,
                                "y": 1,
                                "z": -1
                            },
                            "Properties": [
                                {
                                    "Key": "Motion State",
                                    "Value": "Grounded"
                                },
                                {
                                    "Key": "Model Variant",
                                    "Value": "2"
                                },
                                {
                                    "Key": "Steps Remaining",
                                    "Value": "2"
                                }
                            ]
                        },
                        {
                            "Name": "782de2ee-e1a2-48cf-bb04-f6846c6f30c0",
                            "Palette": "Cathy1 Internal",
                            "Type": "Cracked (2 Steps)",
                            "Position": {
                                "x": 0,
                                "y": 1,
                                "z": -1
                            },
                            "Properties": [
                                {
                                    "Key": "Motion State",
                                    "Value": "Grounded"
                                },
                                {
                                    "Key": "Model Variant",
                                    "Value": "2"
                                },
                                {
                                    "Key": "Steps Remaining",
                                    "Value": "2"
                                }
                            ]
                        },
                        {
                            "Name": "5be2af0a-4c1f-4152-b3d8-d1639d6aeedf",
                            "Palette": "Cathy1 Internal",
                            "Type": "Cracked (2 Steps)",
                            "Position": {
                                "x": 1,
                                "y": 1,
                                "z": -1
                            },
                            "Properties": [
                                {
                                    "Key": "Motion State",
                                    "Value": "Grounded"
                                },
                                {
                                    "Key": "Model Variant",
                                    "Value": "2"
                                },
                                {
                                    "Key": "Steps Remaining",
                                    "Value": "2"
                                }
                            ]
                        },
                        {
                            "Name": "e713e660-f204-4325-8d7a-53bcd1216273",
                            "Palette": "Cathy1 Internal",
                            "Type": "Immobile",
                            "Position": {
                                "x": -4,
                                "y": 1,
                                "z": -1
                            },
                            "Properties": [
                                {
                                    "Key": "Motion State",
                                    "Value": "Grounded"
                                },
                                {
                                    "Key": "Weight Factor",
                                    "Value": "0"
                                }
                            ]
                        },
                        {
                            "Name": "d172f061-a36f-428a-9d68-e454ab062797",
                            "Palette": "Cathy1 Internal",
                            "Type": "Immobile",
                            "Position": {
                                "x": 5,
                                "y": 1,
                                "z": 0
                            },
                            "Properties": [
                                {
                                    "Key": "Motion State",
                                    "Value": "Grounded"
                                },
                                {
                                    "Key": "Weight Factor",
                                    "Value": "0"
                                }
                            ]
                        },
                        {
                            "Name": "afdedcfd-986f-4d63-806a-d6f93729ed76",
                            "Palette": "Cathy1 Internal",
                            "Type": "Goal",
                            "Position": {
                                "x": -5,
                                "y": 13,
                                "z": -1
                            },
                            "Properties": [
                                {
                                    "Key": "Motion State",
                                    "Value": "Edged"
                                },
                                {
                                    "Key": "Weight Factor",
                                    "Value": "0"
                                }
                            ]
                        },
                        {
                            "Name": "8c2a7568-99a7-425b-b63a-e35015c99e64",
                            "Palette": "Cathy1 Internal",
                            "Type": "Small Bomb",
                            "Position": {
                                "x": -4,
                                "y": 12,
                                "z": -1
                            },
                            "Properties": [
                                {
                                    "Key": "Motion State",
                                    "Value": "Edged"
                                }
                            ]
                        },
                        {
                            "Name": "0ae3ce92-0427-46ea-b525-e5abd2037dc0",
                            "Palette": "Cathy1 Internal",
                            "Type": "Immobile",
                            "Position": {
                                "x": 4,
                                "y": 1,
                                "z": 0
                            },
                            "Properties": [
                                {
                                    "Key": "Motion State",
                                    "Value": "Grounded"
                                },
                                {
                                    "Key": "Weight Factor",
                                    "Value": "0"
                                }
                            ]
                        },
                        {
                            "Name": "56269859-eeed-47de-9dd5-71b3989a91b5",
                            "Palette": "Cathy1 Internal",
                            "Type": "Immobile",
                            "Position": {
                                "x": 3,
                                "y": 1,
                                "z": 0
                            },
                            "Properties": [
                                {
                                    "Key": "Motion State",
                                    "Value": "Grounded"
                                },
                                {
                                    "Key": "Weight Factor",
                                    "Value": "0"
                                }
                            ]
                        },
                        {
                            "Name": "45e0f774-cc6c-42cd-9da3-9ac8bb0af7d0",
                            "Palette": "Cathy1 Internal",
                            "Type": "Immobile",
                            "Position": {
                                "x": 2,
                                "y": 1,
                                "z": 0
                            },
                            "Properties": [
                                {
                                    "Key": "Motion State",
                                    "Value": "Grounded"
                                },
                                {
                                    "Key": "Weight Factor",
                                    "Value": "0"
                                }
                            ]
                        },
                        {
                            "Name": "daa29aa9-dfd6-4773-a2c7-cd2372f977b7",
                            "Palette": "Cathy1 Internal",
                            "Type": "Immobile",
                            "Position": {
                                "x": 2,
                                "y": 1,
                                "z": 1
                            },
                            "Properties": [
                                {
                                    "Key": "Motion State",
                                    "Value": "Grounded"
                                },
                                {
                                    "Key": "Weight Factor",
                                    "Value": "0"
                                }
                            ]
                        },
                        {
                            "Name": "22b16b26-f72b-437f-88f4-50eae76e1a29",
                            "Palette": "Cathy1 Internal",
                            "Type": "Immobile",
                            "Position": {
                                "x": 3,
                                "y": 1,
                                "z": 1
                            },
                            "Properties": [
                                {
                                    "Key": "Motion State",
                                    "Value": "Grounded"
                                },
                                {
                                    "Key": "Weight Factor",
                                    "Value": "0"
                                }
                            ]
                        },
                        {
                            "Name": "8062a335-9f7d-40b9-a319-711c8db162d1",
                            "Palette": "Cathy1 Internal",
                            "Type": "Immobile",
                            "Position": {
                                "x": 4,
                                "y": 1,
                                "z": 1
                            },
                            "Properties": [
                                {
                                    "Key": "Motion State",
                                    "Value": "Grounded"
                                },
                                {
                                    "Key": "Weight Factor",
                                    "Value": "0"
                                }
                            ]
                        },
                        {
                            "Name": "ec319efa-ec48-46c2-9bbf-95d48f49afac",
                            "Palette": "Cathy1 Internal",
                            "Type": "Immobile",
                            "Position": {
                                "x": 5,
                                "y": 1,
                                "z": 1
                            },
                            "Properties": [
                                {
                                    "Key": "Motion State",
                                    "Value": "Grounded"
                                },
                                {
                                    "Key": "Weight Factor",
                                    "Value": "0"
                                }
                            ]
                        },
                        {
                            "Name": "dde1854f-17d3-42eb-be22-89e24fe80096",
                            "Palette": "Cathy1 Internal",
                            "Type": "Basic",
                            "Position": {
                                "x": 3,
                                "y": 2,
                                "z": 0
                            },
                            "Properties": [
                                {
                                    "Key": "Motion State",
                                    "Value": "Grounded"
                                },
                                {
                                    "Key": "Model Variant",
                                    "Value": "3"
                                }
                            ]
                        },
                        {
                            "Name": "c2be81cc-5af4-4f5d-aeb3-31eb95ea1e92",
                            "Palette": "Cathy1 Internal",
                            "Type": "Basic",
                            "Position": {
                                "x": 4,
                                "y": 2,
                                "z": 0
                            },
                            "Properties": [
                                {
                                    "Key": "Motion State",
                                    "Value": "Grounded"
                                },
                                {
                                    "Key": "Model Variant",
                                    "Value": "3"
                                }
                            ]
                        },
                        {
                            "Name": "1db550cd-dc92-4c59-8e68-ffe48eedc378",
                            "Palette": "Cathy1 Internal",
                            "Type": "Basic",
                            "Position": {
                                "x": 2,
                                "y": 4,
                                "z": 1
                            },
                            "Properties": [
                                {
                                    "Key": "Motion State",
                                    "Value": "Grounded"
                                },
                                {
                                    "Key": "Model Variant",
                                    "Value": "2"
                                }
                            ]
                        },
                        {
                            "Name": "0d24c9a2-52fe-4993-926e-216a605761e5",
                            "Palette": "Cathy1 Internal",
                            "Type": "Basic",
                            "Position": {
                                "x": 5,
                                "y": 4,
                                "z": 1
                            },
                            "Properties": [
                                {
                                    "Key": "Motion State",
                                    "Value": "Grounded"
                                },
                                {
                                    "Key": "Model Variant",
                                    "Value": "2"
                                }
                            ]
                        },
                        {
                            "Name": "081571b6-8b43-4f7d-94ee-8c617332adf0",
                            "Palette": "Cathy1 Internal",
                            "Type": "Basic",
                            "Position": {
                                "x": 4,
                                "y": 5,
                                "z": 1
                            },
                            "Properties": [
                                {
                                    "Key": "Motion State",
                                    "Value": "Edged"
                                },
                                {
                                    "Key": "Model Variant",
                                    "Value": "2"
                                }
                            ]
                        },
                        {
                            "Name": "a14437ec-a2f7-40bd-8105-a66d84054cc6",
                            "Palette": "Cathy1 Internal",
                            "Type": "Basic",
                            "Position": {
                                "x": 3,
                                "y": 5,
                                "z": 1
                            },
                            "Properties": [
                                {
                                    "Key": "Motion State",
                                    "Value": "Edged"
                                },
                                {
                                    "Key": "Model Variant",
                                    "Value": "2"
                                }
                            ]
                        },
                        {
                            "Name": "10473ccd-fb7a-4e94-95f6-08bdadc4c94e",
                            "Palette": "Cathy1 Internal",
                            "Type": "Immobile",
                            "Position": {
                                "x": 3,
                                "y": 4,
                                "z": 2
                            },
                            "Properties": [
                                {
                                    "Key": "Motion State",
                                    "Value": "Edged"
                                },
                                {
                                    "Key": "Weight Factor",
                                    "Value": "0"
                                }
                            ]
                        },
                        {
                            "Name": "1acd1fb6-bd5e-4001-808c-14ad2682036b",
                            "Palette": "Cathy1 Internal",
                            "Type": "Immobile",
                            "Position": {
                                "x": 4,
                                "y": 4,
                                "z": 2
                            },
                            "Properties": [
                                {
                                    "Key": "Motion State",
                                    "Value": "Edged"
                                },
                                {
                                    "Key": "Weight Factor",
                                    "Value": "0"
                                }
                            ]
                        },
                        {
                            "Name": "658c92d1-83f8-4f42-8ccb-9cf00ea679e3",
                            "Palette": "Cathy1 Internal",
                            "Type": "Small Bomb",
                            "Position": {
                                "x": -3,
                                "y": 11,
                                "z": -1
                            },
                            "Properties": [
                                {
                                    "Key": "Motion State",
                                    "Value": "Edged"
                                }
                            ]
                        },
                        {
                            "Name": "77afd063-182e-4b00-8c98-7f8f380d816e",
                            "Palette": "Cathy1 Internal",
                            "Type": "Small Bomb",
                            "Position": {
                                "x": -3,
                                "y": 10,
                                "z": 0
                            },
                            "Properties": [
                                {
                                    "Key": "Motion State",
                                    "Value": "Edged"
                                }
                            ]
                        },
                        {
                            "Name": "e156ca45-4399-4645-88ed-076a2e80b415",
                            "Palette": "Cathy1 Internal",
                            "Type": "Small Bomb",
                            "Position": {
                                "x": -2,
                                "y": 9,
                                "z": 0
                            },
                            "Properties": [
                                {
                                    "Key": "Motion State",
                                    "Value": "Grounded"
                                }
                            ]
                        },
                        {
                            "Name": "e70c93c0-9eb5-41aa-9dad-9fc662d11bbb",
                            "Palette": "Cathy1 Internal",
                            "Type": "Small Bomb",
                            "Position": {
                                "x": -2,
                                "y": 8,
                                "z": 0
                            },
                            "Properties": [
                                {
                                    "Key": "Motion State",
                                    "Value": "Edged"
                                }
                            ]
                        },
                        {
                            "Name": "2de2b468-c419-4185-aa80-73bd3eb7470d",
                            "Palette": "Cathy1 Internal",
                            "Type": "Small Bomb",
                            "Position": {
                                "x": -1,
                                "y": 7,
                                "z": 0
                            },
                            "Properties": [
                                {
                                    "Key": "Motion State",
                                    "Value": "Edged"
                                }
                            ]
                        },
                        {
                            "Name": "f4b47cc3-5f97-4cb2-92d9-a8f1bcd5251f",
                            "Palette": "Cathy1 Internal",
                            "Type": "Small Bomb",
                            "Position": {
                                "x": -1,
                                "y": 6,
                                "z": 1
                            },
                            "Properties": [
                                {
                                    "Key": "Motion State",
                                    "Value": "Edged"
                                }
                            ]
                        },
                        {
                            "Name": "8a56622a-66e9-42f1-b8d8-622b980fcf59",
                            "Palette": "Cathy1 Internal",
                            "Type": "Small Bomb",
                            "Position": {
                                "x": -2,
                                "y": 5,
                                "z": 1
                            },
                            "Properties": [
                                {
                                    "Key": "Motion State",
                                    "Value": "Grounded"
                                }
                            ]
                        },
                        {
                            "Name": "f4edfc8c-9df2-47fd-a743-2d555ff41cd8",
                            "Palette": "Cathy1 Internal",
                            "Type": "Large Bomb",
                            "Position": {
                                "x": 1,
                                "y": 5,
                                "z": 1
                            },
                            "Properties": [
                                {
                                    "Key": "Motion State",
                                    "Value": "Edged"
                                },
                                {
                                    "Key": "Damage Radius",
                                    "Value": "2"
                                }
                            ]
                        },
                        {
                            "Name": "10b13628-4910-4562-99ca-72ad42eda82d",
                            "Palette": "Cathy1 Internal",
                            "Type": "Immobile",
                            "Position": {
                                "x": 2,
                                "y": 3,
                                "z": 1
                            },
                            "Properties": [
                                {
                                    "Key": "Motion State",
                                    "Value": "Grounded"
                                },
                                {
                                    "Key": "Weight Factor",
                                    "Value": "0"
                                }
                            ]
                        },
                        {
                            "Name": "ffa1ed46-ed81-42e3-b0f6-c01edd63041a",
                            "Palette": "Cathy1 Internal",
                            "Type": "Immobile",
                            "Position": {
                                "x": 5,
                                "y": 3,
                                "z": 1
                            },
                            "Properties": [
                                {
                                    "Key": "Motion State",
                                    "Value": "Grounded"
                                },
                                {
                                    "Key": "Weight Factor",
                                    "Value": "0"
                                }
                            ]
                        },
                        {
                            "Name": "41926527-2c86-47f1-b8ab-5ca7215e8195",
                            "Palette": "Cathy1 Internal",
                            "Type": "Immobile",
                            "Position": {
                                "x": 2,
                                "y": 2,
                                "z": 1
                            },
                            "Properties": [
                                {
                                    "Key": "Motion State",
                                    "Value": "Grounded"
                                },
                                {
                                    "Key": "Weight Factor",
                                    "Value": "0"
                                }
                            ]
                        },
                        {
                            "Name": "ae28ac0a-59f6-40fa-843e-25d351d23442",
                            "Palette": "Cathy1 Internal",
                            "Type": "Immobile",
                            "Position": {
                                "x": 5,
                                "y": 2,
                                "z": 1
                            },
                            "Properties": [
                                {
                                    "Key": "Motion State",
                                    "Value": "Grounded"
                                },
                                {
                                    "Key": "Weight Factor",
                                    "Value": "0"
                                }
                            ]
                        },
                        {
                            "Name": "1892b33d-d082-4df9-917e-89cef143a315",
                            "Palette": "Cathy1 Internal",
                            "Type": "Immobile",
                            "Position": {
                                "x": -2,
                                "y": 4,
                                "z": 1
                            },
                            "Properties": [
                                {
                                    "Key": "Motion State",
                                    "Value": "Grounded"
                                },
                                {
                                    "Key": "Weight Factor",
                                    "Value": "0"
                                }
                            ]
                        },
                        {
                            "Name": "4947ccba-a689-44bc-9ce3-2b45d49a29c4",
                            "Palette": "Cathy1 Internal",
                            "Type": "Immobile",
                            "Position": {
                                "x": -2,
                                "y": 3,
                                "z": 1
                            },
                            "Properties": [
                                {
                                    "Key": "Motion State",
                                    "Value": "Grounded"
                                },
                                {
                                    "Key": "Weight Factor",
                                    "Value": "0"
                                }
                            ]
                        },
                        {
                            "Name": "932c26b5-a146-4d2e-8848-f0b18b7b5b5b",
                            "Palette": "Cathy1 Internal",
                            "Type": "Immobile",
                            "Position": {
                                "x": -2,
                                "y": 2,
                                "z": 1
                            },
                            "Properties": [
                                {
                                    "Key": "Motion State",
                                    "Value": "Grounded"
                                },
                                {
                                    "Key": "Weight Factor",
                                    "Value": "0"
                                }
                            ]
                        },
                        {
                            "Name": "138f017b-b648-47b5-8147-673bae4172bd",
                            "Palette": "Cathy1 Internal",
                            "Type": "Basic",
                            "Position": {
                                "x": -5,
                                "y": 2,
                                "z": -1
                            },
                            "Properties": [
                                {
                                    "Key": "Motion State",
                                    "Value": "Edged"
                                },
                                {
                                    "Key": "Model Variant",
                                    "Value": "2"
                                }
                            ]
                        },
                        {
                            "Name": "b19a191d-edb7-41c5-8888-2b9adea586af",
                            "Palette": "Cathy1 Internal",
                            "Type": "Basic",
                            "Position": {
                                "x": -6,
                                "y": 3,
                                "z": -1
                            },
                            "Properties": [
                                {
                                    "Key": "Motion State",
                                    "Value": "Edged"
                                },
                                {
                                    "Key": "Model Variant",
                                    "Value": "2"
                                }
                            ]
                        },
                        {
                            "Name": "2332d4c4-888d-4f1d-9852-27a022cde9d1",
                            "Palette": "Cathy1 Internal",
                            "Type": "Immobile",
                            "Position": {
                                "x": -14,
                                "y": 4,
                                "z": -1
                            },
                            "Properties": [
                                {
                                    "Key": "Motion State",
                                    "Value": "Grounded"
                                },
                                {
                                    "Key": "Weight Factor",
                                    "Value": "0"
                                }
                            ]
                        },
                        {
                            "Name": "b276f501-921d-4684-a6db-2ddea9daf972",
                            "Palette": "Cathy1 Internal",
                            "Type": "Immobile",
                            "Position": {
                                "x": -14,
                                "y": 3,
                                "z": -1
                            },
                            "Properties": [
                                {
                                    "Key": "Motion State",
                                    "Value": "Grounded"
                                },
                                {
                                    "Key": "Weight Factor",
                                    "Value": "0"
                                }
                            ]
                        },
                        {
                            "Name": "d7584b0f-94aa-4d3e-a7e7-37c533f147df",
                            "Palette": "Cathy1 Internal",
                            "Type": "Immobile",
                            "Position": {
                                "x": -14,
                                "y": 2,
                                "z": -1
                            },
                            "Properties": [
                                {
                                    "Key": "Motion State",
                                    "Value": "Grounded"
                                },
                                {
                                    "Key": "Weight Factor",
                                    "Value": "0"
                                }
                            ]
                        },
                        {
                            "Name": "e7d4a423-48b9-4e21-b59a-5492918bec4b",
                            "Palette": "Cathy1 Internal",
                            "Type": "Immobile",
                            "Position": {
                                "x": -14,
                                "y": 1,
                                "z": -1
                            },
                            "Properties": [
                                {
                                    "Key": "Motion State",
                                    "Value": "Grounded"
                                },
                                {
                                    "Key": "Weight Factor",
                                    "Value": "0"
                                }
                            ]
                        },
                        {
                            "Name": "ca78decc-4f22-45e5-8b3e-ed7c891669c0",
                            "Palette": "Cathy1 Internal",
                            "Type": "Ice",
                            "Position": {
                                "x": 2,
                                "y": 1,
                                "z": -1
                            },
                            "Properties": [
                                {
                                    "Key": "Motion State",
                                    "Value": "Grounded"
                                }
                            ]
                        },
                        {
                            "Name": "bb0cacfc-e8d7-4ae1-a2c3-8268d4a0bd3c",
                            "Palette": "Cathy1 Internal",
                            "Type": "Ice",
                            "Position": {
                                "x": 3,
                                "y": 1,
                                "z": -1
                            },
                            "Properties": [
                                {
                                    "Key": "Motion State",
                                    "Value": "Grounded"
                                }
                            ]
                        },
                        {
                            "Name": "ea9f58ed-5dfa-4284-8832-3378f7d4ec53",
                            "Palette": "Cathy1 Internal",
                            "Type": "Ice",
                            "Position": {
                                "x": 4,
                                "y": 1,
                                "z": -1
                            },
                            "Properties": [
                                {
                                    "Key": "Motion State",
                                    "Value": "Grounded"
                                }
                            ]
                        },
                        {
                            "Name": "6b08b6d4-f53c-4e23-ab3d-29cc2193192f",
                            "Palette": "Cathy1 Internal",
                            "Type": "Ice",
                            "Position": {
                                "x": 5,
                                "y": 1,
                                "z": -1
                            },
                            "Properties": [
                                {
                                    "Key": "Motion State",
                                    "Value": "Grounded"
                                }
                            ]
                        },
                        {
                            "Name": "3f425cab-88ba-49ef-9970-903dc531df8d",
                            "Palette": "Cathy1 Internal",
                            "Type": "Vortex",
                            "Position": {
                                "x": 6,
                                "y": 1,
                                "z": -1
                            },
                            "Properties": [
                                {
                                    "Key": "Motion State",
                                    "Value": "Grounded"
                                }
                            ]
                        },
                        {
                            "Name": "c9b06210-90a5-4581-86fc-285a487cc05f",
                            "Palette": "Bloxels Internal",
                            "Type": "Coin",
                            "Position": {
                                "x": -1,
                                "y": 8,
                                "z": 0
                            },
                            "Properties": [
                                {
                                    "Key": "Motion State",
                                    "Value": "Grounded"
                                },
                                {
                                    "Key": "Gravity Factor",
                                    "Value": "0"
                                }
                            ]
                        },
                        {
                            "Name": "ee80475e-6008-47ab-bfe3-fdbe4774e900",
                            "Palette": "Bloxels Internal",
                            "Type": "Coin",
                            "Position": {
                                "x": -8,
                                "y": 9,
                                "z": 0
                            },
                            "Properties": [
                                {
                                    "Key": "Motion State",
                                    "Value": "Grounded"
                                },
                                {
                                    "Key": "Gravity Factor",
                                    "Value": "0"
                                }
                            ]
                        },
                        {
                            "Name": "9cf2b39f-b097-455a-919f-2826a1eca60b",
                            "Palette": "Cathy1 Internal",
                            "Type": "Immobile",
                            "Position": {
                                "x": -2,
                                "y": 1,
                                "z": 1
                            },
                            "Properties": [
                                {
                                    "Key": "Motion State",
                                    "Value": "Grounded"
                                },
                                {
                                    "Key": "Weight Factor",
                                    "Value": "0"
                                }
                            ]
                        },
                        {
                            "Name": "578ae8c8-0a37-4710-8e9c-75a5c8cafb26",
                            "Palette": "Cathy1 Internal",
                            "Type": "Immobile",
                            "Position": {
                                "x": -10,
                                "y": 1,
                                "z": -1
                            },
                            "Properties": [
                                {
                                    "Key": "Motion State",
                                    "Value": "Grounded"
                                },
                                {
                                    "Key": "Weight Factor",
                                    "Value": "0"
                                }
                            ]
                        },
                        {
                            "Name": "54d46a69-e66f-4cd8-817b-d70f74964df5",
                            "Palette": "Cathy1 Internal",
                            "Type": "Spike Trap",
                            "Position": {
                                "x": 5,
                                "y": 3,
                                "z": 0
                            },
                            "Properties": [
                                {
                                    "Key": "Motion State",
                                    "Value": "Edged"
                                },
                                {
                                    "Key": "Animation Scale",
                                    "Value": "1"
                                }
                            ]
                        },
                        {
                            "Name": "342a8d53-08fb-435b-81f5-5528c6232c3f",
                            "Palette": "Cathy1 Internal",
                            "Type": "Heavy",
                            "Position": {
                                "x": 3,
                                "y": 3,
                                "z": 1
                            },
                            "Properties": [
                                {
                                    "Key": "Motion State",
                                    "Value": "Edged"
                                },
                                {
                                    "Key": "Weight Factor",
                                    "Value": "2.5"
                                }
                            ]
                        },
                        {
                            "Name": "62ec05fb-07a1-4c38-b52e-56754d015db9",
                            "Palette": "Cathy1 Internal",
                            "Type": "Heavy",
                            "Position": {
                                "x": 4,
                                "y": 3,
                                "z": 1
                            },
                            "Properties": [
                                {
                                    "Key": "Motion State",
                                    "Value": "Edged"
                                },
                                {
                                    "Key": "Weight Factor",
                                    "Value": "2.5"
                                }
                            ]
                        },
                        {
                            "Name": "de3e2e51-1bbc-4ee1-b3ff-e3eb97a004a4",
                            "Palette": "Bloxels Internal",
                            "Type": "Coin",
                            "Position": {
                                "x": 4,
                                "y": 4,
                                "z": 1
                            },
                            "Properties": [
                                {
                                    "Key": "Motion State",
                                    "Value": "Grounded"
                                },
                                {
                                    "Key": "Gravity Factor",
                                    "Value": "0"
                                }
                            ]
                        },
                        {
                            "Name": "c3ced435-ff39-450c-bc0b-b9ad47074192",
                            "Palette": "Bloxels Internal",
                            "Type": "Coin",
                            "Position": {
                                "x": 3,
                                "y": 4,
                                "z": 1
                            },
                            "Properties": [
                                {
                                    "Key": "Motion State",
                                    "Value": "Grounded"
                                },
                                {
                                    "Key": "Gravity Factor",
                                    "Value": "0"
                                }
                            ]
                        },
                        {
                            "Name": "24c0a20d-86b3-4a00-bb62-beadedca1860",
                            "Palette": "Bloxels Internal",
                            "Type": "Enemy",
                            "Position": {
                                "x": 0,
                                "y": 2,
                                "z": -1
                            },
                            "Properties": [
                                {
                                    "Key": "Motion State",
                                    "Value": "Grounded"
                                },
                                {
                                    "Key": "Start facing left",
                                    "Value": "True"
                                },
                                {
                                    "Key": "Step delay (in seconds)",
                                    "Value": "1"
                                },
                                {
                                    "Key": "Turn duration (in seconds)",
                                    "Value": "0.25"
                                }
                            ]
                        }
                    ],
                    "Items": null,
                    "Events": [
                        {
                            "Name": "3da130cc-4580-49ec-b8f7-269c06929d10",
                            "Palette": "Cathy Internal",
                            "Type": "Player Start",
                            "Position": {
                                "x": -10,
                                "y": 1.5,
                                "z": -2
                            },
                            "Properties": [
                                {
                                    "Key": "PlayerNumber",
                                    "Value": "0"
                                }
                            ]
                        }
                    ]
                }
            ]
        }
    ]
}