{
    "Name": "Stage Collection",
    "Version": "1.0 Cathy1",
    "Stages": [
        {
            "Name": "Stage",
            "Platforms": [
                {
                    "Name": "Platform",
                    "Position": {
                        "x": 0,
                        "y": 0,
                        "z": 0
                    },
                    "Blocks": [
                        {
                            "Name": "4d550c72-9abb-4f63-8185-675634176023",
                            "Palette": "Cathy1 Internal",
                            "Type": "Basic",
                            "Position": {
                                "x": 0,
                                "y": 1,
                                "z": 0
                            },
                            "Properties": [
                                {
                                    "Key": "Motion State",
                                    "Value": "Grounded"
                                },
                                {
                                    "Key": "Model Variant",
                                    "Value": "2"
                                }
                            ]
                        },
                        {
                            "Name": "4cb92e28-4a10-4525-92bf-6d184892c792",
                            "Palette": "Cathy1 Internal",
                            "Type": "Basic",
                            "Position": {
                                "x": 1,
                                "y": 1,
                                "z": 0
                            },
                            "Properties": [
                                {
                                    "Key": "Motion State",
                                    "Value": "Grounded"
                                },
                                {
                                    "Key": "Model Variant",
                                    "Value": "2"
                                }
                            ]
                        },
                        {
                            "Name": "c34ecb63-0c9a-407d-8492-54c245029bc1",
                            "Palette": "Cathy1 Internal",
                            "Type": "Basic",
                            "Position": {
                                "x": 2,
                                "y": 1,
                                "z": 0
                            },
                            "Properties": [
                                {
                                    "Key": "Motion State",
                                    "Value": "Grounded"
                                },
                                {
                                    "Key": "Model Variant",
                                    "Value": "2"
                                }
                            ]
                        },
                        {
                            "Name": "f6c71861-b5f4-48a2-a27a-f990047b20fd",
                            "Palette": "Cathy1 Internal",
                            "Type": "Basic",
                            "Position": {
                                "x": -1,
                                "y": 1,
                                "z": 0
                            },
                            "Properties": [
                                {
                                    "Key": "Motion State",
                                    "Value": "Grounded"
                                },
                                {
                                    "Key": "Model Variant",
                                    "Value": "2"
                                }
                            ]
                        },
                        {
                            "Name": "be3339f1-1307-420e-887f-27fb211d06eb",
                            "Palette": "Cathy1 Internal",
                            "Type": "Basic",
                            "Position": {
                                "x": -1,
                                "y": 2,
                                "z": 1
                            },
                            "Properties": [
                                {
                                    "Key": "Motion State",
                                    "Value": "Edged"
                                },
                                {
                                    "Key": "Model Variant",
                                    "Value": "2"
                                }
                            ]
                        },
                        {
                            "Name": "0d618c02-9152-419d-8757-194e0951e004",
                            "Palette": "Cathy1 Internal",
                            "Type": "Basic",
                            "Position": {
                                "x": 0,
                                "y": 2,
                                "z": 1
                            },
                            "Properties": [
                                {
                                    "Key": "Motion State",
                                    "Value": "Edged"
                                },
                                {
                                    "Key": "Model Variant",
                                    "Value": "2"
                                }
                            ]
                        },
                        {
                            "Name": "90db1db7-1194-41e6-a587-985366aaa03a",
                            "Palette": "Cathy1 Internal",
                            "Type": "Basic",
                            "Position": {
                                "x": 1,
                                "y": 2,
                                "z": 1
                            },
                            "Properties": [
                                {
                                    "Key": "Motion State",
                                    "Value": "Edged"
                                },
                                {
                                    "Key": "Model Variant",
                                    "Value": "3"
                                }
                            ]
                        },
                        {
                            "Name": "b2998192-52da-4987-aa5c-bbc7254dba7c",
                            "Palette": "Cathy1 Internal",
                            "Type": "Basic",
                            "Position": {
                                "x": 2,
                                "y": 2,
                                "z": 1
                            },
                            "Properties": [
                                {
                                    "Key": "Motion State",
                                    "Value": "Edged"
                                },
                                {
                                    "Key": "Model Variant",
                                    "Value": "3"
                                }
                            ]
                        },
                        {
                            "Name": "b6b0a1db-eda4-4bbc-b401-0ffedacb286b",
                            "Palette": "Cathy1 Internal",
                            "Type": "Basic",
                            "Position": {
                                "x": -2,
                                "y": 1,
                                "z": 0
                            },
                            "Properties": [
                                {
                                    "Key": "Motion State",
                                    "Value": "Grounded"
                                },
                                {
                                    "Key": "Model Variant",
                                    "Value": "3"
                                }
                            ]
                        },
                        {
                            "Name": "a0336edc-5ca6-41e5-9c3b-80142087c320",
                            "Palette": "Cathy1 Internal",
                            "Type": "Basic",
                            "Position": {
                                "x": -3,
                                "y": 1,
                                "z": 0
                            },
                            "Properties": [
                                {
                                    "Key": "Motion State",
                                    "Value": "Grounded"
                                },
                                {
                                    "Key": "Model Variant",
                                    "Value": "2"
                                }
                            ]
                        },
                        {
                            "Name": "6d9eab75-239d-4b69-ab18-50ca7d82749a",
                            "Palette": "Cathy1 Internal",
                            "Type": "Basic",
                            "Position": {
                                "x": -4,
                                "y": 1,
                                "z": 0
                            },
                            "Properties": [
                                {
                                    "Key": "Motion State",
                                    "Value": "Grounded"
                                },
                                {
                                    "Key": "Model Variant",
                                    "Value": "2"
                                }
                            ]
                        },
                        {
                            "Name": "fa1dfa26-9f0c-41c9-baf9-38bee4fb650a",
                            "Palette": "Cathy1 Internal",
                            "Type": "Basic",
                            "Position": {
                                "x": -4,
                                "y": 2,
                                "z": 1
                            },
                            "Properties": [
                                {
                                    "Key": "Motion State",
                                    "Value": "Edged"
                                },
                                {
                                    "Key": "Model Variant",
                                    "Value": "3"
                                }
                            ]
                        },
                        {
                            "Name": "9f3822c5-a453-4b3c-8ad7-010c83f2174d",
                            "Palette": "Cathy1 Internal",
                            "Type": "Basic",
                            "Position": {
                                "x": -3,
                                "y": 2,
                                "z": 1
                            },
                            "Properties": [
                                {
                                    "Key": "Motion State",
                                    "Value": "Edged"
                                },
                                {
                                    "Key": "Model Variant",
                                    "Value": "3"
                                }
                            ]
                        },
                        {
                            "Name": "1d24f74c-ef66-465f-87b3-2f31e818c0ad",
                            "Palette": "Cathy1 Internal",
                            "Type": "Basic",
                            "Position": {
                                "x": -2,
                                "y": 2,
                                "z": 1
                            },
                            "Properties": [
                                {
                                    "Key": "Motion State",
                                    "Value": "Edged"
                                },
                                {
                                    "Key": "Model Variant",
                                    "Value": "3"
                                }
                            ]
                        },
                        {
                            "Name": "589ab791-8d4f-44a7-82ab-2e761c60b16f",
                            "Palette": "Cathy1 Internal",
                            "Type": "Basic",
                            "Position": {
                                "x": -4,
                                "y": 3,
                                "z": 1
                            },
                            "Properties": [
                                {
                                    "Key": "Motion State",
                                    "Value": "Grounded"
                                },
                                {
                                    "Key": "Model Variant",
                                    "Value": "2"
                                }
                            ]
                        },
                        {
                            "Name": "8607e7ed-8192-4986-9b5f-18735f8f18d5",
                            "Palette": "Cathy1 Internal",
                            "Type": "Basic",
                            "Position": {
                                "x": -3,
                                "y": 3,
                                "z": 1
                            },
                            "Properties": [
                                {
                                    "Key": "Motion State",
                                    "Value": "Grounded"
                                },
                                {
                                    "Key": "Model Variant",
                                    "Value": "2"
                                }
                            ]
                        },
                        {
                            "Name": "9be3c286-d67c-4813-8882-334ab5a19ca9",
                            "Palette": "Cathy1 Internal",
                            "Type": "Basic",
                            "Position": {
                                "x": -2,
                                "y": 3,
                                "z": 1
                            },
                            "Properties": [
                                {
                                    "Key": "Motion State",
                                    "Value": "Grounded"
                                },
                                {
                                    "Key": "Model Variant",
                                    "Value": "3"
                                }
                            ]
                        },
                        {
                            "Name": "4b016c1e-b021-45ac-ab16-89de603ab81e",
                            "Palette": "Cathy1 Internal",
                            "Type": "Basic",
                            "Position": {
                                "x": -1,
                                "y": 3,
                                "z": 1
                            },
                            "Properties": [
                                {
                                    "Key": "Motion State",
                                    "Value": "Grounded"
                                },
                                {
                                    "Key": "Model Variant",
                                    "Value": "3"
                                }
                            ]
                        },
                        {
                            "Name": "f64825b8-5887-4f8d-bd1d-4b04ef6f9fdf",
                            "Palette": "Cathy1 Internal",
                            "Type": "Basic",
                            "Position": {
                                "x": 0,
                                "y": 3,
                                "z": 1
                            },
                            "Properties": [
                                {
                                    "Key": "Motion State",
                                    "Value": "Grounded"
                                },
                                {
                                    "Key": "Model Variant",
                                    "Value": "3"
                                }
                            ]
                        },
                        {
                            "Name": "e6368cb5-23ad-409e-a9ea-c8816ecb21e4",
                            "Palette": "Cathy1 Internal",
                            "Type": "Basic",
                            "Position": {
                                "x": 1,
                                "y": 3,
                                "z": 1
                            },
                            "Properties": [
                                {
                                    "Key": "Motion State",
                                    "Value": "Grounded"
                                },
                                {
                                    "Key": "Model Variant",
                                    "Value": "2"
                                }
                            ]
                        },
                        {
                            "Name": "3b1edff2-a5ab-4a75-ab31-69a724baf1d7",
                            "Palette": "Cathy1 Internal",
                            "Type": "Basic",
                            "Position": {
                                "x": 2,
                                "y": 3,
                                "z": 1
                            },
                            "Properties": [
                                {
                                    "Key": "Motion State",
                                    "Value": "Grounded"
                                },
                                {
                                    "Key": "Model Variant",
                                    "Value": "2"
                                }
                            ]
                        },
                        {
                            "Name": "2b2edce6-27b3-48ec-8b1e-ba752401e04c",
                            "Palette": "Cathy1 Internal",
                            "Type": "Basic",
                            "Position": {
                                "x": 1,
                                "y": 4,
                                "z": 1
                            },
                            "Properties": [
                                {
                                    "Key": "Motion State",
                                    "Value": "Grounded"
                                },
                                {
                                    "Key": "Model Variant",
                                    "Value": "2"
                                }
                            ]
                        },
                        {
                            "Name": "9e301ffd-bf23-40a1-b05a-4e279595d815",
                            "Palette": "Cathy1 Internal",
                            "Type": "Basic",
                            "Position": {
                                "x": 0,
                                "y": 4,
                                "z": 1
                            },
                            "Properties": [
                                {
                                    "Key": "Motion State",
                                    "Value": "Grounded"
                                },
                                {
                                    "Key": "Model Variant",
                                    "Value": "3"
                                }
                            ]
                        },
                        {
                            "Name": "def00c5b-e8ae-4320-aba3-3eb761222473",
                            "Palette": "Cathy1 Internal",
                            "Type": "Basic",
                            "Position": {
                                "x": -1,
                                "y": 4,
                                "z": 1
                            },
                            "Properties": [
                                {
                                    "Key": "Motion State",
                                    "Value": "Grounded"
                                },
                                {
                                    "Key": "Model Variant",
                                    "Value": "2"
                                }
                            ]
                        },
                        {
                            "Name": "2faf3388-8c5f-4588-b166-4cf09cf78d4a",
                            "Palette": "Cathy1 Internal",
                            "Type": "Basic",
                            "Position": {
                                "x": -2,
                                "y": 4,
                                "z": 1
                            },
                            "Properties": [
                                {
                                    "Key": "Motion State",
                                    "Value": "Grounded"
                                },
                                {
                                    "Key": "Model Variant",
                                    "Value": "3"
                                }
                            ]
                        },
                        {
                            "Name": "aa235b37-8c3c-411d-8c1f-770f2818eee9",
                            "Palette": "Cathy1 Internal",
                            "Type": "Basic",
                            "Position": {
                                "x": -3,
                                "y": 4,
                                "z": 1
                            },
                            "Properties": [
                                {
                                    "Key": "Motion State",
                                    "Value": "Grounded"
                                },
                                {
                                    "Key": "Model Variant",
                                    "Value": "3"
                                }
                            ]
                        },
                        {
                            "Name": "f5ea4910-5152-4459-9050-646b67617d8f",
                            "Palette": "Cathy1 Internal",
                            "Type": "Basic",
                            "Position": {
                                "x": -4,
                                "y": 4,
                                "z": 1
                            },
                            "Properties": [
                                {
                                    "Key": "Motion State",
                                    "Value": "Grounded"
                                },
                                {
                                    "Key": "Model Variant",
                                    "Value": "3"
                                }
                            ]
                        },
                        {
                            "Name": "fabf2de0-ae28-4464-84b3-285e4b98e2d1",
                            "Palette": "Cathy1 Internal",
                            "Type": "Basic",
                            "Position": {
                                "x": -1,
                                "y": 2,
                                "z": 0
                            },
                            "Properties": [
                                {
                                    "Key": "Motion State",
                                    "Value": "Grounded"
                                },
                                {
                                    "Key": "Model Variant",
                                    "Value": "2"
                                }
                            ]
                        },
                        {
                            "Name": "f2324abd-ff85-423d-9dae-0d650c8d853a",
                            "Palette": "Cathy1 Internal",
                            "Type": "Basic",
                            "Position": {
                                "x": 1,
                                "y": 5,
                                "z": 2
                            },
                            "Properties": [
                                {
                                    "Key": "Motion State",
                                    "Value": "Grounded"
                                },
                                {
                                    "Key": "Model Variant",
                                    "Value": "2"
                                }
                            ]
                        },
                        {
                            "Name": "34e6c5d9-ae6a-4602-af1c-7c0e24cb8352",
                            "Palette": "Cathy1 Internal",
                            "Type": "Basic",
                            "Position": {
                                "x": 0,
                                "y": 5,
                                "z": 2
                            },
                            "Properties": [
                                {
                                    "Key": "Motion State",
                                    "Value": "Grounded"
                                },
                                {
                                    "Key": "Model Variant",
                                    "Value": "3"
                                }
                            ]
                        },
                        {
                            "Name": "425b8d7b-4ec2-431b-bb85-e80920b55e52",
                            "Palette": "Cathy1 Internal",
                            "Type": "Basic",
                            "Position": {
                                "x": -1,
                                "y": 5,
                                "z": 2
                            },
                            "Properties": [
                                {
                                    "Key": "Motion State",
                                    "Value": "Grounded"
                                },
                                {
                                    "Key": "Model Variant",
                                    "Value": "2"
                                }
                            ]
                        },
                        {
                            "Name": "4857568d-cf35-4b9f-941e-74fd46b32513",
                            "Palette": "Cathy1 Internal",
                            "Type": "Basic",
                            "Position": {
                                "x": -2,
                                "y": 5,
                                "z": 2
                            },
                            "Properties": [
                                {
                                    "Key": "Motion State",
                                    "Value": "Grounded"
                                },
                                {
                                    "Key": "Model Variant",
                                    "Value": "3"
                                }
                            ]
                        },
                        {
                            "Name": "0d093e32-30dd-49b1-8d29-f10e5180b56a",
                            "Palette": "Cathy1 Internal",
                            "Type": "Basic",
                            "Position": {
                                "x": -3,
                                "y": 5,
                                "z": 2
                            },
                            "Properties": [
                                {
                                    "Key": "Motion State",
                                    "Value": "Grounded"
                                },
                                {
                                    "Key": "Model Variant",
                                    "Value": "3"
                                }
                            ]
                        },
                        {
                            "Name": "708c1ade-9af6-4e43-8d85-e0086f8aadd7",
                            "Palette": "Cathy1 Internal",
                            "Type": "Basic",
                            "Position": {
                                "x": -4,
                                "y": 5,
                                "z": 2
                            },
                            "Properties": [
                                {
                                    "Key": "Motion State",
                                    "Value": "Grounded"
                                },
                                {
                                    "Key": "Model Variant",
                                    "Value": "2"
                                }
                            ]
                        },
                        {
                            "Name": "38dbca83-a9c5-43a3-a2eb-eb6421abf57f",
                            "Palette": "Cathy1 Internal",
                            "Type": "Basic",
                            "Position": {
                                "x": -4,
                                "y": 4,
                                "z": 2
                            },
                            "Properties": [
                                {
                                    "Key": "Motion State",
                                    "Value": "Grounded"
                                },
                                {
                                    "Key": "Model Variant",
                                    "Value": "3"
                                }
                            ]
                        },
                        {
                            "Name": "52930006-31e6-4616-9f80-822ecefecd27",
                            "Palette": "Cathy1 Internal",
                            "Type": "Basic",
                            "Position": {
                                "x": -3,
                                "y": 4,
                                "z": 2
                            },
                            "Properties": [
                                {
                                    "Key": "Motion State",
                                    "Value": "Grounded"
                                },
                                {
                                    "Key": "Model Variant",
                                    "Value": "3"
                                }
                            ]
                        },
                        {
                            "Name": "e964f03c-1528-4a33-95a6-ca7322213b7d",
                            "Palette": "Cathy1 Internal",
                            "Type": "Basic",
                            "Position": {
                                "x": -2,
                                "y": 4,
                                "z": 2
                            },
                            "Properties": [
                                {
                                    "Key": "Motion State",
                                    "Value": "Grounded"
                                },
                                {
                                    "Key": "Model Variant",
                                    "Value": "3"
                                }
                            ]
                        },
                        {
                            "Name": "45bf6f25-f8c0-4a77-99d2-6d5d14410876",
                            "Palette": "Cathy1 Internal",
                            "Type": "Basic",
                            "Position": {
                                "x": -1,
                                "y": 4,
                                "z": 2
                            },
                            "Properties": [
                                {
                                    "Key": "Motion State",
                                    "Value": "Grounded"
                                },
                                {
                                    "Key": "Model Variant",
                                    "Value": "2"
                                }
                            ]
                        },
                        {
                            "Name": "3ed345c8-c444-4c9c-9936-a0b84ccc4b82",
                            "Palette": "Cathy1 Internal",
                            "Type": "Basic",
                            "Position": {
                                "x": 0,
                                "y": 4,
                                "z": 2
                            },
                            "Properties": [
                                {
                                    "Key": "Motion State",
                                    "Value": "Grounded"
                                },
                                {
                                    "Key": "Model Variant",
                                    "Value": "2"
                                }
                            ]
                        },
                        {
                            "Name": "5f129df0-ab9a-4239-9a35-bb814af9ae8f",
                            "Palette": "Cathy1 Internal",
                            "Type": "Basic",
                            "Position": {
                                "x": 1,
                                "y": 4,
                                "z": 2
                            },
                            "Properties": [
                                {
                                    "Key": "Motion State",
                                    "Value": "Grounded"
                                },
                                {
                                    "Key": "Model Variant",
                                    "Value": "3"
                                }
                            ]
                        },
                        {
                            "Name": "c7aa10a1-64bd-4563-a278-6bb5696d6e94",
                            "Palette": "Cathy1 Internal",
                            "Type": "Basic",
                            "Position": {
                                "x": 1,
                                "y": 3,
                                "z": 2
                            },
                            "Properties": [
                                {
                                    "Key": "Motion State",
                                    "Value": "Grounded"
                                },
                                {
                                    "Key": "Model Variant",
                                    "Value": "2"
                                }
                            ]
                        },
                        {
                            "Name": "a6777b53-bfca-4020-9f56-587e95ac23aa",
                            "Palette": "Cathy1 Internal",
                            "Type": "Basic",
                            "Position": {
                                "x": 0,
                                "y": 3,
                                "z": 2
                            },
                            "Properties": [
                                {
                                    "Key": "Motion State",
                                    "Value": "Grounded"
                                },
                                {
                                    "Key": "Model Variant",
                                    "Value": "3"
                                }
                            ]
                        },
                        {
                            "Name": "007d2477-7a3b-442a-bb08-e8a231290fb3",
                            "Palette": "Cathy1 Internal",
                            "Type": "Basic",
                            "Position": {
                                "x": -1,
                                "y": 3,
                                "z": 2
                            },
                            "Properties": [
                                {
                                    "Key": "Motion State",
                                    "Value": "Grounded"
                                },
                                {
                                    "Key": "Model Variant",
                                    "Value": "3"
                                }
                            ]
                        },
                        {
                            "Name": "bfd9f950-20dd-484f-a87f-ee8e4ff4e417",
                            "Palette": "Cathy1 Internal",
                            "Type": "Basic",
                            "Position": {
                                "x": -2,
                                "y": 3,
                                "z": 2
                            },
                            "Properties": [
                                {
                                    "Key": "Motion State",
                                    "Value": "Grounded"
                                },
                                {
                                    "Key": "Model Variant",
                                    "Value": "2"
                                }
                            ]
                        },
                        {
                            "Name": "d0165b76-1d47-401c-a6c5-add4f7c0453f",
                            "Palette": "Cathy1 Internal",
                            "Type": "Basic",
                            "Position": {
                                "x": -3,
                                "y": 3,
                                "z": 2
                            },
                            "Properties": [
                                {
                                    "Key": "Motion State",
                                    "Value": "Grounded"
                                },
                                {
                                    "Key": "Model Variant",
                                    "Value": "3"
                                }
                            ]
                        },
                        {
                            "Name": "e372db98-ad18-4d81-a2fb-5107effc5fa5",
                            "Palette": "Cathy1 Internal",
                            "Type": "Basic",
                            "Position": {
                                "x": -4,
                                "y": 3,
                                "z": 2
                            },
                            "Properties": [
                                {
                                    "Key": "Motion State",
                                    "Value": "Grounded"
                                },
                                {
                                    "Key": "Model Variant",
                                    "Value": "3"
                                }
                            ]
                        },
                        {
                            "Name": "a9167af8-7773-4848-aed7-2fadc3f5e19c",
                            "Palette": "Cathy1 Internal",
                            "Type": "Basic",
                            "Position": {
                                "x": -4,
                                "y": 2,
                                "z": 2
                            },
                            "Properties": [
                                {
                                    "Key": "Motion State",
                                    "Value": "Grounded"
                                },
                                {
                                    "Key": "Model Variant",
                                    "Value": "3"
                                }
                            ]
                        },
                        {
                            "Name": "dfa23e0b-ebeb-4a49-96a4-fe9b0c0fe5cc",
                            "Palette": "Cathy1 Internal",
                            "Type": "Basic",
                            "Position": {
                                "x": -3,
                                "y": 2,
                                "z": 2
                            },
                            "Properties": [
                                {
                                    "Key": "Motion State",
                                    "Value": "Grounded"
                                },
                                {
                                    "Key": "Model Variant",
                                    "Value": "3"
                                }
                            ]
                        },
                        {
                            "Name": "35d67c21-441b-4562-bcb4-4b22fd4c1459",
                            "Palette": "Cathy1 Internal",
                            "Type": "Basic",
                            "Position": {
                                "x": -2,
                                "y": 2,
                                "z": 2
                            },
                            "Properties": [
                                {
                                    "Key": "Motion State",
                                    "Value": "Grounded"
                                },
                                {
                                    "Key": "Model Variant",
                                    "Value": "3"
                                }
                            ]
                        },
                        {
                            "Name": "345349e7-607b-4ad3-a118-2af09e67968f",
                            "Palette": "Cathy1 Internal",
                            "Type": "Basic",
                            "Position": {
                                "x": -1,
                                "y": 2,
                                "z": 2
                            },
                            "Properties": [
                                {
                                    "Key": "Motion State",
                                    "Value": "Grounded"
                                },
                                {
                                    "Key": "Model Variant",
                                    "Value": "2"
                                }
                            ]
                        },
                        {
                            "Name": "f62bb6ad-ad5e-4324-8d63-031e72d9f459",
                            "Palette": "Cathy1 Internal",
                            "Type": "Basic",
                            "Position": {
                                "x": 0,
                                "y": 2,
                                "z": 2
                            },
                            "Properties": [
                                {
                                    "Key": "Motion State",
                                    "Value": "Grounded"
                                },
                                {
                                    "Key": "Model Variant",
                                    "Value": "2"
                                }
                            ]
                        },
                        {
                            "Name": "a3603c90-c7bd-44ef-a5f4-15a36d6ec3da",
                            "Palette": "Cathy1 Internal",
                            "Type": "Basic",
                            "Position": {
                                "x": 1,
                                "y": 2,
                                "z": 2
                            },
                            "Properties": [
                                {
                                    "Key": "Motion State",
                                    "Value": "Grounded"
                                },
                                {
                                    "Key": "Model Variant",
                                    "Value": "2"
                                }
                            ]
                        },
                        {
                            "Name": "ccecd015-06bf-4a0e-ac16-288ec84cb6e3",
                            "Palette": "Cathy1 Internal",
                            "Type": "Basic",
                            "Position": {
                                "x": 1,
                                "y": 1,
                                "z": 2
                            },
                            "Properties": [
                                {
                                    "Key": "Motion State",
                                    "Value": "Grounded"
                                },
                                {
                                    "Key": "Model Variant",
                                    "Value": "2"
                                }
                            ]
                        },
                        {
                            "Name": "a05c5e36-0583-42bd-8fcf-ed4f47bc5c69",
                            "Palette": "Cathy1 Internal",
                            "Type": "Basic",
                            "Position": {
                                "x": 0,
                                "y": 1,
                                "z": 2
                            },
                            "Properties": [
                                {
                                    "Key": "Motion State",
                                    "Value": "Grounded"
                                },
                                {
                                    "Key": "Model Variant",
                                    "Value": "3"
                                }
                            ]
                        },
                        {
                            "Name": "1f182d6d-7af3-4751-9c2e-fe9d852d898c",
                            "Palette": "Cathy1 Internal",
                            "Type": "Basic",
                            "Position": {
                                "x": -1,
                                "y": 1,
                                "z": 2
                            },
                            "Properties": [
                                {
                                    "Key": "Motion State",
                                    "Value": "Grounded"
                                },
                                {
                                    "Key": "Model Variant",
                                    "Value": "3"
                                }
                            ]
                        },
                        {
                            "Name": "8532b0e2-a8fc-4b69-9dea-96a47c84447c",
                            "Palette": "Cathy1 Internal",
                            "Type": "Basic",
                            "Position": {
                                "x": -2,
                                "y": 1,
                                "z": 2
                            },
                            "Properties": [
                                {
                                    "Key": "Motion State",
                                    "Value": "Grounded"
                                },
                                {
                                    "Key": "Model Variant",
                                    "Value": "3"
                                }
                            ]
                        },
                        {
                            "Name": "98f09aa7-ba02-4cb7-81aa-a1a507fba480",
                            "Palette": "Cathy1 Internal",
                            "Type": "Basic",
                            "Position": {
                                "x": -3,
                                "y": 1,
                                "z": 2
                            },
                            "Properties": [
                                {
                                    "Key": "Motion State",
                                    "Value": "Grounded"
                                },
                                {
                                    "Key": "Model Variant",
                                    "Value": "3"
                                }
                            ]
                        },
                        {
                            "Name": "d6642d9b-a222-4b44-a6e7-767d09b9a508",
                            "Palette": "Cathy1 Internal",
                            "Type": "Basic",
                            "Position": {
                                "x": -4,
                                "y": 1,
                                "z": 2
                            },
                            "Properties": [
                                {
                                    "Key": "Motion State",
                                    "Value": "Grounded"
                                },
                                {
                                    "Key": "Model Variant",
                                    "Value": "3"
                                }
                            ]
                        },
                        {
                            "Name": "d6bca725-dc2f-4092-a5e4-2349bf6dae9c",
                            "Palette": "Cathy1 Internal",
                            "Type": "Basic",
                            "Position": {
                                "x": -4,
                                "y": 6,
                                "z": 2
                            },
                            "Properties": [
                                {
                                    "Key": "Motion State",
                                    "Value": "Grounded"
                                },
                                {
                                    "Key": "Model Variant",
                                    "Value": "3"
                                }
                            ]
                        },
                        {
                            "Name": "1a162850-3005-4fd3-a7d2-11c3dcb4bdc6",
                            "Palette": "Cathy1 Internal",
                            "Type": "Basic",
                            "Position": {
                                "x": -3,
                                "y": 6,
                                "z": 2
                            },
                            "Properties": [
                                {
                                    "Key": "Motion State",
                                    "Value": "Grounded"
                                },
                                {
                                    "Key": "Model Variant",
                                    "Value": "2"
                                }
                            ]
                        },
                        {
                            "Name": "5317d160-3ca6-4d3a-a13c-ffc16f50642c",
                            "Palette": "Cathy1 Internal",
                            "Type": "Basic",
                            "Position": {
                                "x": -2,
                                "y": 6,
                                "z": 2
                            },
                            "Properties": [
                                {
                                    "Key": "Motion State",
                                    "Value": "Grounded"
                                },
                                {
                                    "Key": "Model Variant",
                                    "Value": "3"
                                }
                            ]
                        },
                        {
                            "Name": "85d21cda-8ba7-4f5b-bcd9-2b6eb07cf46a",
                            "Palette": "Cathy1 Internal",
                            "Type": "Basic",
                            "Position": {
                                "x": -1,
                                "y": 6,
                                "z": 2
                            },
                            "Properties": [
                                {
                                    "Key": "Motion State",
                                    "Value": "Grounded"
                                },
                                {
                                    "Key": "Model Variant",
                                    "Value": "2"
                                }
                            ]
                        },
                        {
                            "Name": "8a23c9a8-e62f-4fbe-afa9-0a29a7bcc9eb",
                            "Palette": "Cathy1 Internal",
                            "Type": "Basic",
                            "Position": {
                                "x": 0,
                                "y": 6,
                                "z": 2
                            },
                            "Properties": [
                                {
                                    "Key": "Motion State",
                                    "Value": "Grounded"
                                },
                                {
                                    "Key": "Model Variant",
                                    "Value": "3"
                                }
                            ]
                        },
                        {
                            "Name": "9de9b35c-0601-451a-a485-1ffb75b98800",
                            "Palette": "Cathy1 Internal",
                            "Type": "Basic",
                            "Position": {
                                "x": 1,
                                "y": 6,
                                "z": 2
                            },
                            "Properties": [
                                {
                                    "Key": "Motion State",
                                    "Value": "Grounded"
                                },
                                {
                                    "Key": "Model Variant",
                                    "Value": "2"
                                }
                            ]
                        },
                        {
                            "Name": "a1b42bad-4098-4694-86ab-71b01a20edc6",
                            "Palette": "Cathy1 Internal",
                            "Type": "Immobile",
                            "Position": {
                                "x": 1,
                                "y": 7,
                                "z": 3
                            },
                            "Properties": [
                                {
                                    "Key": "Motion State",
                                    "Value": "Edged"
                                },
                                {
                                    "Key": "Weight Factor",
                                    "Value": "0"
                                }
                            ]
                        },
                        {
                            "Name": "35d1996a-0844-47fc-af55-2e6ee73ac1bf",
                            "Palette": "Cathy1 Internal",
                            "Type": "Immobile",
                            "Position": {
                                "x": -1,
                                "y": 7,
                                "z": 3
                            },
                            "Properties": [
                                {
                                    "Key": "Motion State",
                                    "Value": "Edged"
                                },
                                {
                                    "Key": "Weight Factor",
                                    "Value": "0"
                                }
                            ]
                        },
                        {
                            "Name": "f407691b-112c-496f-8103-85ac82a612ac",
                            "Palette": "Cathy1 Internal",
                            "Type": "Immobile",
                            "Position": {
                                "x": -4,
                                "y": 8,
                                "z": 3
                            },
                            "Properties": [
                                {
                                    "Key": "Motion State",
                                    "Value": "Grounded"
                                },
                                {
                                    "Key": "Weight Factor",
                                    "Value": "0"
                                }
                            ]
                        },
                        {
                            "Name": "f201b417-b529-42b8-8b67-13cae0139e94",
                            "Palette": "Cathy1 Internal",
                            "Type": "Immobile",
                            "Position": {
                                "x": -2,
                                "y": 8,
                                "z": 3
                            },
                            "Properties": [
                                {
                                    "Key": "Motion State",
                                    "Value": "Grounded"
                                },
                                {
                                    "Key": "Weight Factor",
                                    "Value": "0"
                                }
                            ]
                        },
                        {
                            "Name": "d92600ef-e064-4e5c-9fca-ce87f492b2ab",
                            "Palette": "Cathy1 Internal",
                            "Type": "Immobile",
                            "Position": {
                                "x": 0,
                                "y": 8,
                                "z": 3
                            },
                            "Properties": [
                                {
                                    "Key": "Motion State",
                                    "Value": "Grounded"
                                },
                                {
                                    "Key": "Weight Factor",
                                    "Value": "0"
                                }
                            ]
                        },
                        {
                            "Name": "9737455b-f1d6-4194-8cae-5ec3a1dc8c88",
                            "Palette": "Cathy1 Internal",
                            "Type": "Basic",
                            "Position": {
                                "x": 1,
                                "y": 8,
                                "z": 3
                            },
                            "Properties": [
                                {
                                    "Key": "Motion State",
                                    "Value": "Grounded"
                                },
                                {
                                    "Key": "Model Variant",
                                    "Value": "2"
                                }
                            ]
                        },
                        {
                            "Name": "e553f519-7a4d-40cd-bca9-921dce456a1c",
                            "Palette": "Cathy1 Internal",
                            "Type": "Basic",
                            "Position": {
                                "x": -1,
                                "y": 8,
                                "z": 3
                            },
                            "Properties": [
                                {
                                    "Key": "Motion State",
                                    "Value": "Grounded"
                                },
                                {
                                    "Key": "Model Variant",
                                    "Value": "3"
                                }
                            ]
                        },
                        {
                            "Name": "5d2182f0-4b5f-4484-a042-c29cbd1f065f",
                            "Palette": "Cathy1 Internal",
                            "Type": "Basic",
                            "Position": {
                                "x": 0,
                                "y": 7,
                                "z": 3
                            },
                            "Properties": [
                                {
                                    "Key": "Motion State",
                                    "Value": "Edged"
                                },
                                {
                                    "Key": "Model Variant",
                                    "Value": "3"
                                }
                            ]
                        },
                        {
                            "Name": "b6c0a323-e9b3-43fe-9f32-1d21048d84f1",
                            "Palette": "Cathy1 Internal",
                            "Type": "Basic",
                            "Position": {
                                "x": -2,
                                "y": 7,
                                "z": 3
                            },
                            "Properties": [
                                {
                                    "Key": "Motion State",
                                    "Value": "Edged"
                                },
                                {
                                    "Key": "Model Variant",
                                    "Value": "2"
                                }
                            ]
                        },
                        {
                            "Name": "ebf4ea74-cde1-4ca4-b76c-27d6b6a42538",
                            "Palette": "Cathy1 Internal",
                            "Type": "Immobile",
                            "Position": {
                                "x": -3,
                                "y": 7,
                                "z": 3
                            },
                            "Properties": [
                                {
                                    "Key": "Motion State",
                                    "Value": "Edged"
                                },
                                {
                                    "Key": "Weight Factor",
                                    "Value": "0"
                                }
                            ]
                        },
                        {
                            "Name": "ef326e53-f837-471c-bca4-e9723f1206e5",
                            "Palette": "Cathy1 Internal",
                            "Type": "Basic",
                            "Position": {
                                "x": -3,
                                "y": 8,
                                "z": 3
                            },
                            "Properties": [
                                {
                                    "Key": "Motion State",
                                    "Value": "Grounded"
                                },
                                {
                                    "Key": "Model Variant",
                                    "Value": "3"
                                }
                            ]
                        },
                        {
                            "Name": "3f8543ca-866f-44cf-a869-8a6605efe388",
                            "Palette": "Cathy1 Internal",
                            "Type": "Basic",
                            "Position": {
                                "x": -4,
                                "y": 7,
                                "z": 3
                            },
                            "Properties": [
                                {
                                    "Key": "Motion State",
                                    "Value": "Edged"
                                },
                                {
                                    "Key": "Model Variant",
                                    "Value": "2"
                                }
                            ]
                        },
                        {
                            "Name": "9d1d01ae-211f-4694-8f72-68a8054eda95",
                            "Palette": "Cathy1 Internal",
                            "Type": "Immobile",
                            "Position": {
                                "x": -4,
                                "y": 9,
                                "z": 4
                            },
                            "Properties": [
                                {
                                    "Key": "Motion State",
                                    "Value": "Edged"
                                },
                                {
                                    "Key": "Weight Factor",
                                    "Value": "0"
                                }
                            ]
                        },
                        {
                            "Name": "2b3416ac-db09-449d-92f5-e01caa2ee351",
                            "Palette": "Cathy1 Internal",
                            "Type": "Immobile",
                            "Position": {
                                "x": -3,
                                "y": 9,
                                "z": 4
                            },
                            "Properties": [
                                {
                                    "Key": "Motion State",
                                    "Value": "Edged"
                                },
                                {
                                    "Key": "Weight Factor",
                                    "Value": "0"
                                }
                            ]
                        },
                        {
                            "Name": "b2b3fcc2-e135-4875-871b-837d3eedb2fe",
                            "Palette": "Cathy1 Internal",
                            "Type": "Immobile",
                            "Position": {
                                "x": -2,
                                "y": 9,
                                "z": 4
                            },
                            "Properties": [
                                {
                                    "Key": "Motion State",
                                    "Value": "Edged"
                                },
                                {
                                    "Key": "Weight Factor",
                                    "Value": "0"
                                }
                            ]
                        },
                        {
                            "Name": "cb22414d-e0fb-4840-864e-cab4eb9249de",
                            "Palette": "Cathy1 Internal",
                            "Type": "Immobile",
                            "Position": {
                                "x": -1,
                                "y": 9,
                                "z": 4
                            },
                            "Properties": [
                                {
                                    "Key": "Motion State",
                                    "Value": "Edged"
                                },
                                {
                                    "Key": "Weight Factor",
                                    "Value": "0"
                                }
                            ]
                        },
                        {
                            "Name": "1e300daf-83a2-4ae1-be70-1011d45a8bd2",
                            "Palette": "Cathy1 Internal",
                            "Type": "Immobile",
                            "Position": {
                                "x": 0,
                                "y": 9,
                                "z": 4
                            },
                            "Properties": [
                                {
                                    "Key": "Motion State",
                                    "Value": "Edged"
                                },
                                {
                                    "Key": "Weight Factor",
                                    "Value": "0"
                                }
                            ]
                        },
                        {
                            "Name": "bc097cd9-e53a-40c1-b8cd-2783fa1ce2a0",
                            "Palette": "Cathy1 Internal",
                            "Type": "Immobile",
                            "Position": {
                                "x": 1,
                                "y": 9,
                                "z": 4
                            },
                            "Properties": [
                                {
                                    "Key": "Motion State",
                                    "Value": "Edged"
                                },
                                {
                                    "Key": "Weight Factor",
                                    "Value": "0"
                                }
                            ]
                        },
                        {
                            "Name": "5fc8ffeb-c970-48c5-8ff5-ea23a20a19da",
                            "Palette": "Cathy1 Internal",
                            "Type": "Immobile",
                            "Position": {
                                "x": 0,
                                "y": 10,
                                "z": 4
                            },
                            "Properties": [
                                {
                                    "Key": "Motion State",
                                    "Value": "Grounded"
                                },
                                {
                                    "Key": "Weight Factor",
                                    "Value": "0"
                                }
                            ]
                        },
                        {
                            "Name": "ebabb2cf-bbfd-4391-be9a-6b95bf4bce71",
                            "Palette": "Cathy1 Internal",
                            "Type": "Immobile",
                            "Position": {
                                "x": -1,
                                "y": 10,
                                "z": 4
                            },
                            "Properties": [
                                {
                                    "Key": "Motion State",
                                    "Value": "Grounded"
                                },
                                {
                                    "Key": "Weight Factor",
                                    "Value": "0"
                                }
                            ]
                        },
                        {
                            "Name": "0640313c-7a98-4fe3-a02f-8c23570859d9",
                            "Palette": "Cathy1 Internal",
                            "Type": "Immobile",
                            "Position": {
                                "x": -2,
                                "y": 10,
                                "z": 4
                            },
                            "Properties": [
                                {
                                    "Key": "Motion State",
                                    "Value": "Grounded"
                                },
                                {
                                    "Key": "Weight Factor",
                                    "Value": "0"
                                }
                            ]
                        },
                        {
                            "Name": "7b187a59-b566-4dc5-895b-c58a26da3a54",
                            "Palette": "Cathy1 Internal",
                            "Type": "Immobile",
                            "Position": {
                                "x": -3,
                                "y": 10,
                                "z": 4
                            },
                            "Properties": [
                                {
                                    "Key": "Motion State",
                                    "Value": "Grounded"
                                },
                                {
                                    "Key": "Weight Factor",
                                    "Value": "0"
                                }
                            ]
                        },
                        {
                            "Name": "79aac748-52fb-44b2-a151-0c9a664f17c2",
                            "Palette": "Cathy1 Internal",
                            "Type": "Immobile",
                            "Position": {
                                "x": -4,
                                "y": 10,
                                "z": 4
                            },
                            "Properties": [
                                {
                                    "Key": "Motion State",
                                    "Value": "Grounded"
                                },
                                {
                                    "Key": "Weight Factor",
                                    "Value": "0"
                                }
                            ]
                        },
                        {
                            "Name": "0e79ac4d-f5b3-466c-8ec5-4a16e05d45e2",
                            "Palette": "Cathy1 Internal",
                            "Type": "Immobile",
                            "Position": {
                                "x": -4,
                                "y": 11,
                                "z": 4
                            },
                            "Properties": [
                                {
                                    "Key": "Motion State",
                                    "Value": "Grounded"
                                },
                                {
                                    "Key": "Weight Factor",
                                    "Value": "0"
                                }
                            ]
                        },
                        {
                            "Name": "9f545e95-f4d7-471f-a342-c485c32d466c",
                            "Palette": "Cathy1 Internal",
                            "Type": "Immobile",
                            "Position": {
                                "x": -4,
                                "y": 12,
                                "z": 4
                            },
                            "Properties": [
                                {
                                    "Key": "Motion State",
                                    "Value": "Grounded"
                                },
                                {
                                    "Key": "Weight Factor",
                                    "Value": "0"
                                }
                            ]
                        },
                        {
                            "Name": "12f74bbc-b3d0-4db2-b77a-e5c00d955a02",
                            "Palette": "Cathy1 Internal",
                            "Type": "Basic",
                            "Position": {
                                "x": 0,
                                "y": 11,
                                "z": 4
                            },
                            "Properties": [
                                {
                                    "Key": "Motion State",
                                    "Value": "Grounded"
                                },
                                {
                                    "Key": "Model Variant",
                                    "Value": "2"
                                }
                            ]
                        },
                        {
                            "Name": "5a70a52d-b2f6-438d-b9f7-9a2758673a5a",
                            "Palette": "Cathy1 Internal",
                            "Type": "Immobile",
                            "Position": {
                                "x": -2,
                                "y": 11,
                                "z": 4
                            },
                            "Properties": [
                                {
                                    "Key": "Motion State",
                                    "Value": "Grounded"
                                },
                                {
                                    "Key": "Weight Factor",
                                    "Value": "0"
                                }
                            ]
                        },
                        {
                            "Name": "a94e1c61-7cfb-4cf6-9ef8-30e9555013d3",
                            "Palette": "Cathy1 Internal",
                            "Type": "Immobile",
                            "Position": {
                                "x": -3,
                                "y": 11,
                                "z": 4
                            },
                            "Properties": [
                                {
                                    "Key": "Motion State",
                                    "Value": "Grounded"
                                },
                                {
                                    "Key": "Weight Factor",
                                    "Value": "0"
                                }
                            ]
                        },
                        {
                            "Name": "d366fbf8-762f-47e5-b57b-66d12abd5b49",
                            "Palette": "Cathy1 Internal",
                            "Type": "Basic",
                            "Position": {
                                "x": -2,
                                "y": 12,
                                "z": 4
                            },
                            "Properties": [
                                {
                                    "Key": "Motion State",
                                    "Value": "Grounded"
                                },
                                {
                                    "Key": "Model Variant",
                                    "Value": "3"
                                }
                            ]
                        },
                        {
                            "Name": "8976751e-c53d-4180-99ea-cde977766da0",
                            "Palette": "Cathy1 Internal",
                            "Type": "Immobile",
                            "Position": {
                                "x": 1,
                                "y": 10,
                                "z": 4
                            },
                            "Properties": [
                                {
                                    "Key": "Motion State",
                                    "Value": "Grounded"
                                },
                                {
                                    "Key": "Weight Factor",
                                    "Value": "0"
                                }
                            ]
                        },
                        {
                            "Name": "0d1cea60-cc1c-48bb-83fe-abc66a5851e6",
                            "Palette": "Cathy1 Internal",
                            "Type": "Immobile",
                            "Position": {
                                "x": 1,
                                "y": 9,
                                "z": 3
                            },
                            "Properties": [
                                {
                                    "Key": "Motion State",
                                    "Value": "Grounded"
                                },
                                {
                                    "Key": "Weight Factor",
                                    "Value": "0"
                                }
                            ]
                        },
                        {
                            "Name": "ab7d343d-a85d-43ad-8451-c6b1e45ff8f5",
                            "Palette": "Cathy1 Internal",
                            "Type": "Goal",
                            "Position": {
                                "x": -4,
                                "y": 13,
                                "z": 4
                            },
                            "Properties": [
                                {
                                    "Key": "Motion State",
                                    "Value": "Grounded"
                                },
                                {
                                    "Key": "Weight Factor",
                                    "Value": "0"
                                },
                                {
                                    "Key": "Next Stage Filename",
                                    "Value": "Tutorial4.json"
                                }
                            ]
                        },
                        {
                            "Name": "b819015a-0098-4cab-a71d-9749b7d8158b",
                            "Palette": "Bloxels Internal",
                            "Type": "Story",
                            "Position": {
                                "x": -4,
                                "y": 3,
                                "z": -1
                            },
                            "Properties": [
                                {
                                    "Key": "Motion State",
                                    "Value": "Grounded"
                                },
                                {
                                    "Key": "Gravity Factor",
                                    "Value": "0"
                                },
                                {
                                    "Key": "Text",
                                    "Value": "Push and Pull blocks to make stairs"
                                },
                                {
                                    "Key": "Color (#rrggbb)",
                                    "Value": "#ffff00"
                                },
                                {
                                    "Key": "Size",
                                    "Value": "10"
                                }
                            ]
                        },
                        {
                            "Name": "af96a35a-0e76-46a6-be78-001a63bf887e",
                            "Palette": "Bloxels Internal",
                            "Type": "Story",
                            "Position": {
                                "x": -4,
                                "y": 1,
                                "z": -1
                            },
                            "Properties": [
                                {
                                    "Key": "Motion State",
                                    "Value": "Grounded"
                                },
                                {
                                    "Key": "Gravity Factor",
                                    "Value": "0"
                                },
                                {
                                    "Key": "Text",
                                    "Value": "Undo button in upper right corner will undo last push or pull"
                                },
                                {
                                    "Key": "Color (#rrggbb)",
                                    "Value": "#ffffff"
                                },
                                {
                                    "Key": "Size",
                                    "Value": "6"
                                }
                            ]
                        },
                        {
                            "Name": "f36ca3ff-16e0-4f79-8537-67fa4ab8f5f8",
                            "Palette": "Bloxels Internal",
                            "Type": "Story",
                            "Position": {
                                "x": 3,
                                "y": 3,
                                "z": -1
                            },
                            "Properties": [
                                {
                                    "Key": "Motion State",
                                    "Value": "Grounded"
                                },
                                {
                                    "Key": "Gravity Factor",
                                    "Value": "0"
                                },
                                {
                                    "Key": "Text",
                                    "Value": "shift \/ grab + arrows\nA \/ X + D-Pad"
                                },
                                {
                                    "Key": "Color (#rrggbb)",
                                    "Value": "#ffffff"
                                },
                                {
                                    "Key": "Size",
                                    "Value": "6"
                                }
                            ]
                        },
                        {
                            "Name": "cd8ae16a-3f5d-42f5-b4d0-e8eb8a3ddebe",
                            "Palette": "Bloxels Internal",
                            "Type": "Story",
                            "Position": {
                                "x": -2,
                                "y": 14,
                                "z": 6
                            },
                            "Properties": [
                                {
                                    "Key": "Motion State",
                                    "Value": "Grounded"
                                },
                                {
                                    "Key": "Gravity Factor",
                                    "Value": "0"
                                },
                                {
                                    "Key": "Text",
                                    "Value": "Collect coins for a high score"
                                },
                                {
                                    "Key": "Color (#rrggbb)",
                                    "Value": "#ffff00"
                                },
                                {
                                    "Key": "Size",
                                    "Value": "10"
                                }
                            ]
                        },
                        {
                            "Name": "0dc632e6-3169-46dc-bf29-e5b3023ea521",
                            "Palette": "Bloxels Internal",
                            "Type": "Story",
                            "Position": {
                                "x": 3,
                                "y": 9,
                                "z": 3
                            },
                            "Properties": [
                                {
                                    "Key": "Motion State",
                                    "Value": "Grounded"
                                },
                                {
                                    "Key": "Gravity Factor",
                                    "Value": "0"
                                },
                                {
                                    "Key": "Text",
                                    "Value": "These dark blocks\n can't be moved"
                                },
                                {
                                    "Key": "Color (#rrggbb)",
                                    "Value": "#ffffff"
                                },
                                {
                                    "Key": "Size",
                                    "Value": "6"
                                }
                            ]
                        },
                        {
                            "Name": "5b4cbc03-38e4-4754-8dd7-9212a6b6f38f",
                            "Palette": "Bloxels Internal",
                            "Type": "Story",
                            "Position": {
                                "x": 3,
                                "y": 7,
                                "z": 2
                            },
                            "Properties": [
                                {
                                    "Key": "Motion State",
                                    "Value": "Grounded"
                                },
                                {
                                    "Key": "Gravity Factor",
                                    "Value": "0"
                                },
                                {
                                    "Key": "Text",
                                    "Value": "Items can help!"
                                },
                                {
                                    "Key": "Color (#rrggbb)",
                                    "Value": "#ffffff"
                                },
                                {
                                    "Key": "Size",
                                    "Value": "8"
                                }
                            ]
                        }
                    ],
                    "Items": [
                        {
                            "Name": "236e8551-a551-4b7f-927a-eb1b6f69e97f",
                            "Palette": "Cat5 Internal",
                            "Type": "Player Start",
                            "Position": {
                                "x": -4,
                                "y": 2,
                                "z": 0
                            },
                            "Properties": [
                                {
                                    "Key": "Owning Block",
                                    "Value": "6d9eab75-239d-4b69-ab18-50ca7d82749a"
                                },
                                {
                                    "Key": "Collectable",
                                    "Value": "False"
                                },
                                {
                                    "Key": "Uses",
                                    "Value": "0"
                                },
                                {
                                    "Key": "Trigger",
                                    "Value": "True"
                                }
                            ]
                        },
                        {
                            "Name": "b461f64d-52f5-4016-845f-05beb522110f",
                            "Palette": "Cat5 Internal",
                            "Type": "Coin",
                            "Position": {
                                "x": 2,
                                "y": 4,
                                "z": 1
                            },
                            "Properties": [
                                {
                                    "Key": "Owning Block",
                                    "Value": "3b1edff2-a5ab-4a75-ab31-69a724baf1d7"
                                },
                                {
                                    "Key": "Uses",
                                    "Value": "0"
                                }
                            ]
                        },
                        {
                            "Name": "ddb534f5-805a-41f2-aa73-6e948a1dd2b2",
                            "Palette": "Cat5 Internal",
                            "Type": "Coin",
                            "Position": {
                                "x": -4,
                                "y": 9,
                                "z": 3
                            },
                            "Properties": [
                                {
                                    "Key": "Owning Block",
                                    "Value": "f407691b-112c-496f-8103-85ac82a612ac"
                                },
                                {
                                    "Key": "Uses",
                                    "Value": "0"
                                }
                            ]
                        },
                        {
                            "Name": "da0ac9cd-3cee-4dbb-b7c9-8e5a612ae446",
                            "Palette": "Cat5 Internal",
                            "Type": "Coin",
                            "Position": {
                                "x": 0,
                                "y": 12,
                                "z": 4
                            },
                            "Properties": [
                                {
                                    "Key": "Owning Block",
                                    "Value": "12f74bbc-b3d0-4db2-b77a-e5c00d955a02"
                                },
                                {
                                    "Key": "Uses",
                                    "Value": "0"
                                }
                            ]
                        },
                        {
                            "Name": "5f2c39df-8a63-4d91-b104-fd8e82314b22",
                            "Palette": "Cat5 Internal",
                            "Type": "Coin",
                            "Position": {
                                "x": -2,
                                "y": 13,
                                "z": 4
                            },
                            "Properties": [
                                {
                                    "Key": "Owning Block",
                                    "Value": "d366fbf8-762f-47e5-b57b-66d12abd5b49"
                                },
                                {
                                    "Key": "Uses",
                                    "Value": "0"
                                }
                            ]
                        },
                        {
                            "Name": "26b1b1f4-7cf7-4e74-be49-67a6dbe3d8ef",
                            "Palette": "Cat5 Internal",
                            "Type": "X-Factor",
                            "Position": {
                                "x": 0,
                                "y": 7,
                                "z": 2
                            },
                            "Properties": [
                                {
                                    "Key": "Owning Block",
                                    "Value": "8a23c9a8-e62f-4fbe-afa9-0a29a7bcc9eb"
                                }
                            ]
                        }
                    ],
                    "Events": [ ]
                }
            ]
        }
    ]
}