{
    "Name": "Stage Collection",
    "Version": "1.0 Cathy1",
    "Stages": [
        {
            "Name": "Stage",
            "Platforms": [
                {
                    "Name": "Platform",
                    "Position": {
                        "x": 0,
                        "y": 0,
                        "z": 0
                    },
                    "Blocks": [
                        {
                            "Name": "f6692b11-f1d6-49f2-9398-f4fbdee904bc",
                            "Palette": "Cathy1 Internal",
                            "Type": "Basic",
                            "Position": {
                                "x": -4,
                                "y": 1,
                                "z": 0
                            },
                            "Properties": [
                                {
                                    "Key": "Motion State",
                                    "Value": "Grounded"
                                },
                                {
                                    "Key": "Model Variant",
                                    "Value": "3"
                                }
                            ]
                        },
                        {
                            "Name": "08a62205-fe45-40b7-a92a-fcb6e3b7cc5b",
                            "Palette": "Cathy1 Internal",
                            "Type": "Basic",
                            "Position": {
                                "x": -3,
                                "y": 1,
                                "z": 0
                            },
                            "Properties": [
                                {
                                    "Key": "Motion State",
                                    "Value": "Grounded"
                                },
                                {
                                    "Key": "Model Variant",
                                    "Value": "3"
                                }
                            ]
                        },
                        {
                            "Name": "7d49367c-dba9-459d-a442-62126e1923c6",
                            "Palette": "Cathy1 Internal",
                            "Type": "Basic",
                            "Position": {
                                "x": -2,
                                "y": 1,
                                "z": 0
                            },
                            "Properties": [
                                {
                                    "Key": "Motion State",
                                    "Value": "Grounded"
                                },
                                {
                                    "Key": "Model Variant",
                                    "Value": "2"
                                }
                            ]
                        },
                        {
                            "Name": "a1536e6e-6812-4787-a205-9c59827ad522",
                            "Palette": "Cathy1 Internal",
                            "Type": "Basic",
                            "Position": {
                                "x": -2,
                                "y": 2,
                                "z": 0
                            },
                            "Properties": [
                                {
                                    "Key": "Motion State",
                                    "Value": "Grounded"
                                },
                                {
                                    "Key": "Model Variant",
                                    "Value": "3"
                                }
                            ]
                        },
                        {
                            "Name": "c93b66a7-e938-46b5-bb73-33ad615c28da",
                            "Palette": "Cathy1 Internal",
                            "Type": "Basic",
                            "Position": {
                                "x": -3,
                                "y": 2,
                                "z": 0
                            },
                            "Properties": [
                                {
                                    "Key": "Motion State",
                                    "Value": "Grounded"
                                }
                            ]
                        },
                        {
                            "Name": "6ee85fcd-8e40-41f0-b466-ab6e62b61675",
                            "Palette": "Cathy1 Internal",
                            "Type": "Basic",
                            "Position": {
                                "x": -4,
                                "y": 2,
                                "z": 0
                            },
                            "Properties": [
                                {
                                    "Key": "Motion State",
                                    "Value": "Grounded"
                                }
                            ]
                        },
                        {
                            "Name": "39dcaee0-2609-4e8c-b755-793595d3c215",
                            "Palette": "Cathy1 Internal",
                            "Type": "Basic",
                            "Position": {
                                "x": -3,
                                "y": 3,
                                "z": 0
                            },
                            "Properties": [
                                {
                                    "Key": "Motion State",
                                    "Value": "Grounded"
                                },
                                {
                                    "Key": "Model Variant",
                                    "Value": "3"
                                }
                            ]
                        },
                        {
                            "Name": "11e129e5-f254-413c-bc86-45de29b35219",
                            "Palette": "Cathy1 Internal",
                            "Type": "Basic",
                            "Position": {
                                "x": -2,
                                "y": 3,
                                "z": 0
                            },
                            "Properties": [
                                {
                                    "Key": "Motion State",
                                    "Value": "Grounded"
                                }
                            ]
                        },
                        {
                            "Name": "c9a444ee-1911-4c19-8ec1-b6f548c24bfd",
                            "Palette": "Cathy1 Internal",
                            "Type": "Basic",
                            "Position": {
                                "x": -2,
                                "y": 4,
                                "z": 0
                            },
                            "Properties": [
                                {
                                    "Key": "Motion State",
                                    "Value": "Grounded"
                                },
                                {
                                    "Key": "Model Variant",
                                    "Value": "3"
                                }
                            ]
                        },
                        {
                            "Name": "5103384b-c1e1-4d44-9a76-b1993748fa5d",
                            "Palette": "Cathy1 Internal",
                            "Type": "Basic",
                            "Position": {
                                "x": 2,
                                "y": 1,
                                "z": 0
                            },
                            "Properties": [
                                {
                                    "Key": "Motion State",
                                    "Value": "Grounded"
                                },
                                {
                                    "Key": "Model Variant",
                                    "Value": "2"
                                }
                            ]
                        },
                        {
                            "Name": "1756e45c-2a08-4be7-ad57-8dc4eb220b4d",
                            "Palette": "Cathy1 Internal",
                            "Type": "Basic",
                            "Position": {
                                "x": 3,
                                "y": 1,
                                "z": 0
                            },
                            "Properties": [
                                {
                                    "Key": "Motion State",
                                    "Value": "Grounded"
                                }
                            ]
                        },
                        {
                            "Name": "4709c86f-21b2-4ca9-88cc-b2a49738b0cb",
                            "Palette": "Cathy1 Internal",
                            "Type": "Basic",
                            "Position": {
                                "x": 4,
                                "y": 1,
                                "z": 0
                            },
                            "Properties": [
                                {
                                    "Key": "Motion State",
                                    "Value": "Grounded"
                                }
                            ]
                        },
                        {
                            "Name": "081a7210-c1bc-48f0-a72a-1eea9c0e8a5f",
                            "Palette": "Cathy1 Internal",
                            "Type": "Basic",
                            "Position": {
                                "x": 4,
                                "y": 2,
                                "z": 1
                            },
                            "Properties": [
                                {
                                    "Key": "Motion State",
                                    "Value": "Edged"
                                }
                            ]
                        },
                        {
                            "Name": "6d7025c5-9d24-47c8-aa63-d160e22c290b",
                            "Palette": "Cathy1 Internal",
                            "Type": "Basic",
                            "Position": {
                                "x": 3,
                                "y": 2,
                                "z": 1
                            },
                            "Properties": [
                                {
                                    "Key": "Motion State",
                                    "Value": "Edged"
                                },
                                {
                                    "Key": "Model Variant",
                                    "Value": "2"
                                }
                            ]
                        },
                        {
                            "Name": "24301cc3-8153-4998-8291-3bd937f3985a",
                            "Palette": "Cathy1 Internal",
                            "Type": "Basic",
                            "Position": {
                                "x": 2,
                                "y": 2,
                                "z": 1
                            },
                            "Properties": [
                                {
                                    "Key": "Motion State",
                                    "Value": "Edged"
                                }
                            ]
                        },
                        {
                            "Name": "66284aa0-8d35-42a4-993c-37f0e07407ec",
                            "Palette": "Cathy1 Internal",
                            "Type": "Basic",
                            "Position": {
                                "x": 2,
                                "y": 3,
                                "z": 2
                            },
                            "Properties": [
                                {
                                    "Key": "Motion State",
                                    "Value": "Edged"
                                }
                            ]
                        },
                        {
                            "Name": "3fec96f2-dca6-4c01-9d55-c56c0d9f4cbd",
                            "Palette": "Cathy1 Internal",
                            "Type": "Basic",
                            "Position": {
                                "x": 3,
                                "y": 3,
                                "z": 2
                            },
                            "Properties": [
                                {
                                    "Key": "Motion State",
                                    "Value": "Edged"
                                }
                            ]
                        },
                        {
                            "Name": "76ffc3f8-6f78-4b9d-a3b8-af40f8ce0f96",
                            "Palette": "Cathy1 Internal",
                            "Type": "Basic",
                            "Position": {
                                "x": 4,
                                "y": 3,
                                "z": 2
                            },
                            "Properties": [
                                {
                                    "Key": "Motion State",
                                    "Value": "Edged"
                                },
                                {
                                    "Key": "Model Variant",
                                    "Value": "3"
                                }
                            ]
                        },
                        {
                            "Name": "914a5bff-c88d-4a45-93eb-c9ec546361e7",
                            "Palette": "Cathy1 Internal",
                            "Type": "Basic",
                            "Position": {
                                "x": 4,
                                "y": 4,
                                "z": 3
                            },
                            "Properties": [
                                {
                                    "Key": "Motion State",
                                    "Value": "Edged"
                                },
                                {
                                    "Key": "Model Variant",
                                    "Value": "3"
                                }
                            ]
                        },
                        {
                            "Name": "ff741c57-3d5d-4205-b5a6-b085837fa710",
                            "Palette": "Cathy1 Internal",
                            "Type": "Basic",
                            "Position": {
                                "x": 3,
                                "y": 4,
                                "z": 3
                            },
                            "Properties": [
                                {
                                    "Key": "Motion State",
                                    "Value": "Edged"
                                },
                                {
                                    "Key": "Model Variant",
                                    "Value": "3"
                                }
                            ]
                        },
                        {
                            "Name": "adb9a592-cac5-4aee-b535-d144dd872583",
                            "Palette": "Cathy1 Internal",
                            "Type": "Basic",
                            "Position": {
                                "x": 2,
                                "y": 4,
                                "z": 3
                            },
                            "Properties": [
                                {
                                    "Key": "Motion State",
                                    "Value": "Edged"
                                },
                                {
                                    "Key": "Model Variant",
                                    "Value": "3"
                                }
                            ]
                        },
                        {
                            "Name": "c835315f-9086-4ebd-b67e-42e8ca96de57",
                            "Palette": "Cathy1 Internal",
                            "Type": "Basic",
                            "Position": {
                                "x": 3,
                                "y": 5,
                                "z": 3
                            },
                            "Properties": [
                                {
                                    "Key": "Motion State",
                                    "Value": "Grounded"
                                },
                                {
                                    "Key": "Model Variant",
                                    "Value": "2"
                                }
                            ]
                        },
                        {
                            "Name": "aa6309fc-3dba-41c2-8653-cefa05a2d2b5",
                            "Palette": "Cathy1 Internal",
                            "Type": "Basic",
                            "Position": {
                                "x": 2,
                                "y": 5,
                                "z": 3
                            },
                            "Properties": [
                                {
                                    "Key": "Motion State",
                                    "Value": "Grounded"
                                },
                                {
                                    "Key": "Model Variant",
                                    "Value": "2"
                                }
                            ]
                        },
                        {
                            "Name": "15aab966-2e6d-4866-9790-1e5ec1c5c621",
                            "Palette": "Cathy1 Internal",
                            "Type": "Basic",
                            "Position": {
                                "x": 1,
                                "y": 5,
                                "z": 3
                            },
                            "Properties": [
                                {
                                    "Key": "Motion State",
                                    "Value": "Edged"
                                },
                                {
                                    "Key": "Model Variant",
                                    "Value": "2"
                                }
                            ]
                        },
                        {
                            "Name": "de7f20a3-e9e3-43c7-87dd-5ba0c1605b53",
                            "Palette": "Cathy1 Internal",
                            "Type": "Basic",
                            "Position": {
                                "x": 3,
                                "y": 6,
                                "z": 3
                            },
                            "Properties": [
                                {
                                    "Key": "Motion State",
                                    "Value": "Grounded"
                                },
                                {
                                    "Key": "Model Variant",
                                    "Value": "2"
                                }
                            ]
                        },
                        {
                            "Name": "13269e01-bbb4-4398-b637-cc8700c8c759",
                            "Palette": "Cathy1 Internal",
                            "Type": "Basic",
                            "Position": {
                                "x": 2,
                                "y": 6,
                                "z": 3
                            },
                            "Properties": [
                                {
                                    "Key": "Motion State",
                                    "Value": "Grounded"
                                },
                                {
                                    "Key": "Model Variant",
                                    "Value": "3"
                                }
                            ]
                        },
                        {
                            "Name": "8ed4bbc7-2bd0-4270-9346-439b2a659a9a",
                            "Palette": "Cathy1 Internal",
                            "Type": "Basic",
                            "Position": {
                                "x": 1,
                                "y": 6,
                                "z": 3
                            },
                            "Properties": [
                                {
                                    "Key": "Motion State",
                                    "Value": "Grounded"
                                },
                                {
                                    "Key": "Model Variant",
                                    "Value": "2"
                                }
                            ]
                        },
                        {
                            "Name": "7241a7ed-3957-408f-ba27-187a1fb08867",
                            "Palette": "Cathy1 Internal",
                            "Type": "Basic",
                            "Position": {
                                "x": 0,
                                "y": 6,
                                "z": 3
                            },
                            "Properties": [
                                {
                                    "Key": "Motion State",
                                    "Value": "Edged"
                                }
                            ]
                        },
                        {
                            "Name": "ef87e50d-87aa-4e2b-b67a-83cb0e3f5f79",
                            "Palette": "Cathy1 Internal",
                            "Type": "Basic",
                            "Position": {
                                "x": 0,
                                "y": 7,
                                "z": 3
                            },
                            "Properties": [
                                {
                                    "Key": "Motion State",
                                    "Value": "Grounded"
                                },
                                {
                                    "Key": "Model Variant",
                                    "Value": "2"
                                }
                            ]
                        },
                        {
                            "Name": "a83907bb-37e8-4506-bdb8-1bb91c2c736d",
                            "Palette": "Cathy1 Internal",
                            "Type": "Basic",
                            "Position": {
                                "x": 1,
                                "y": 7,
                                "z": 3
                            },
                            "Properties": [
                                {
                                    "Key": "Motion State",
                                    "Value": "Grounded"
                                }
                            ]
                        },
                        {
                            "Name": "5bc7b87a-54a3-4e99-8e9b-59368826e614",
                            "Palette": "Cathy1 Internal",
                            "Type": "Basic",
                            "Position": {
                                "x": 2,
                                "y": 7,
                                "z": 3
                            },
                            "Properties": [
                                {
                                    "Key": "Motion State",
                                    "Value": "Grounded"
                                },
                                {
                                    "Key": "Model Variant",
                                    "Value": "3"
                                }
                            ]
                        },
                        {
                            "Name": "c076054d-dc8a-4cd1-8f26-a10b6b22243d",
                            "Palette": "Cathy1 Internal",
                            "Type": "Basic",
                            "Position": {
                                "x": 1,
                                "y": 8,
                                "z": 3
                            },
                            "Properties": [
                                {
                                    "Key": "Motion State",
                                    "Value": "Grounded"
                                }
                            ]
                        },
                        {
                            "Name": "b85f3a56-003e-4ab7-adf5-180495c1d95b",
                            "Palette": "Cathy1 Internal",
                            "Type": "Basic",
                            "Position": {
                                "x": 0,
                                "y": 8,
                                "z": 3
                            },
                            "Properties": [
                                {
                                    "Key": "Motion State",
                                    "Value": "Grounded"
                                },
                                {
                                    "Key": "Model Variant",
                                    "Value": "3"
                                }
                            ]
                        },
                        {
                            "Name": "5ca24f4a-b88c-424f-8f64-8e5a445dcca6",
                            "Palette": "Cathy1 Internal",
                            "Type": "Basic",
                            "Position": {
                                "x": -1,
                                "y": 8,
                                "z": 3
                            },
                            "Properties": [
                                {
                                    "Key": "Motion State",
                                    "Value": "Edged"
                                }
                            ]
                        },
                        {
                            "Name": "cd53ea47-b30d-446f-9bcd-3d29d9b9feb2",
                            "Palette": "Cathy1 Internal",
                            "Type": "Basic",
                            "Position": {
                                "x": 1,
                                "y": 8,
                                "z": 2
                            },
                            "Properties": [
                                {
                                    "Key": "Motion State",
                                    "Value": "Edged"
                                }
                            ]
                        },
                        {
                            "Name": "31c2f94a-b600-4f06-b881-53392e7d1909",
                            "Palette": "Cathy1 Internal",
                            "Type": "Basic",
                            "Position": {
                                "x": 2,
                                "y": 7,
                                "z": 2
                            },
                            "Properties": [
                                {
                                    "Key": "Motion State",
                                    "Value": "Edged"
                                }
                            ]
                        },
                        {
                            "Name": "17655bcf-cf26-42ac-abf8-6396fb04ce9c",
                            "Palette": "Cathy1 Internal",
                            "Type": "Basic",
                            "Position": {
                                "x": 3,
                                "y": 6,
                                "z": 2
                            },
                            "Properties": [
                                {
                                    "Key": "Motion State",
                                    "Value": "Edged"
                                },
                                {
                                    "Key": "Model Variant",
                                    "Value": "2"
                                }
                            ]
                        },
                        {
                            "Name": "4f207ac5-236a-4534-b258-837cc875e28a",
                            "Palette": "Cathy1 Internal",
                            "Type": "Basic",
                            "Position": {
                                "x": 4,
                                "y": 7,
                                "z": 3
                            },
                            "Properties": [
                                {
                                    "Key": "Motion State",
                                    "Value": "Edged"
                                },
                                {
                                    "Key": "Model Variant",
                                    "Value": "3"
                                }
                            ]
                        },
                        {
                            "Name": "2ffa2315-801c-4cd6-b163-9b2d79aed84e",
                            "Palette": "Cathy1 Internal",
                            "Type": "Basic",
                            "Position": {
                                "x": 4,
                                "y": 8,
                                "z": 3
                            },
                            "Properties": [
                                {
                                    "Key": "Motion State",
                                    "Value": "Grounded"
                                },
                                {
                                    "Key": "Model Variant",
                                    "Value": "2"
                                }
                            ]
                        },
                        {
                            "Name": "2282b00d-15ba-4dca-ae3c-5deae44ad56c",
                            "Palette": "Cathy1 Internal",
                            "Type": "Basic",
                            "Position": {
                                "x": 4,
                                "y": 9,
                                "z": 3
                            },
                            "Properties": [
                                {
                                    "Key": "Motion State",
                                    "Value": "Grounded"
                                }
                            ]
                        },
                        {
                            "Name": "1591e3f3-d7a7-4921-b324-f50b7d02a744",
                            "Palette": "Cathy1 Internal",
                            "Type": "Basic",
                            "Position": {
                                "x": 1,
                                "y": 9,
                                "z": 4
                            },
                            "Properties": [
                                {
                                    "Key": "Motion State",
                                    "Value": "Edged"
                                },
                                {
                                    "Key": "Model Variant",
                                    "Value": "2"
                                }
                            ]
                        },
                        {
                            "Name": "0eda7621-fe79-4a58-94f7-c8d0e73314a3",
                            "Palette": "Cathy1 Internal",
                            "Type": "Basic",
                            "Position": {
                                "x": 0,
                                "y": 9,
                                "z": 4
                            },
                            "Properties": [
                                {
                                    "Key": "Motion State",
                                    "Value": "Edged"
                                },
                                {
                                    "Key": "Model Variant",
                                    "Value": "3"
                                }
                            ]
                        },
                        {
                            "Name": "76351059-e3f5-4f0c-acd0-9dfeda25f0f9",
                            "Palette": "Cathy1 Internal",
                            "Type": "Basic",
                            "Position": {
                                "x": -1,
                                "y": 9,
                                "z": 4
                            },
                            "Properties": [
                                {
                                    "Key": "Motion State",
                                    "Value": "Edged"
                                },
                                {
                                    "Key": "Model Variant",
                                    "Value": "2"
                                }
                            ]
                        },
                        {
                            "Name": "56fd3297-4b78-4b34-a75f-c9e558cadc3e",
                            "Palette": "Cathy1 Internal",
                            "Type": "Basic",
                            "Position": {
                                "x": 1,
                                "y": 10,
                                "z": 4
                            },
                            "Properties": [
                                {
                                    "Key": "Motion State",
                                    "Value": "Grounded"
                                },
                                {
                                    "Key": "Model Variant",
                                    "Value": "2"
                                }
                            ]
                        },
                        {
                            "Name": "e8335401-22f9-4a3a-bb3b-4b5184140f72",
                            "Palette": "Cathy1 Internal",
                            "Type": "Basic",
                            "Position": {
                                "x": -1,
                                "y": 10,
                                "z": 4
                            },
                            "Properties": [
                                {
                                    "Key": "Motion State",
                                    "Value": "Grounded"
                                }
                            ]
                        },
                        {
                            "Name": "099e232f-4305-43be-a461-d0f73780d197",
                            "Palette": "Cathy1 Internal",
                            "Type": "Basic",
                            "Position": {
                                "x": -2,
                                "y": 10,
                                "z": 4
                            },
                            "Properties": [
                                {
                                    "Key": "Motion State",
                                    "Value": "Edged"
                                }
                            ]
                        },
                        {
                            "Name": "b85f3b9e-82d9-4cb9-a376-a142f1b9e53d",
                            "Palette": "Cathy1 Internal",
                            "Type": "Basic",
                            "Position": {
                                "x": 0,
                                "y": 11,
                                "z": 4
                            },
                            "Properties": [
                                {
                                    "Key": "Motion State",
                                    "Value": "Edged"
                                },
                                {
                                    "Key": "Model Variant",
                                    "Value": "3"
                                }
                            ]
                        },
                        {
                            "Name": "a376de62-e891-4441-aaf8-898303cc7600",
                            "Palette": "Cathy1 Internal",
                            "Type": "Basic",
                            "Position": {
                                "x": -2,
                                "y": 11,
                                "z": 4
                            },
                            "Properties": [
                                {
                                    "Key": "Motion State",
                                    "Value": "Grounded"
                                },
                                {
                                    "Key": "Model Variant",
                                    "Value": "3"
                                }
                            ]
                        },
                        {
                            "Name": "28db37b6-9b80-4103-b72f-862ef2298bb3",
                            "Palette": "Cathy1 Internal",
                            "Type": "Basic",
                            "Position": {
                                "x": -3,
                                "y": 11,
                                "z": 4
                            },
                            "Properties": [
                                {
                                    "Key": "Motion State",
                                    "Value": "Edged"
                                },
                                {
                                    "Key": "Model Variant",
                                    "Value": "3"
                                }
                            ]
                        },
                        {
                            "Name": "853a3fc0-3b77-4f7d-8743-15833f05b6a0",
                            "Palette": "Cathy1 Internal",
                            "Type": "Basic",
                            "Position": {
                                "x": -3,
                                "y": 12,
                                "z": 4
                            },
                            "Properties": [
                                {
                                    "Key": "Motion State",
                                    "Value": "Grounded"
                                }
                            ]
                        },
                        {
                            "Name": "4bf4d12b-f30a-4ef7-8880-1627a89a0413",
                            "Palette": "Cathy1 Internal",
                            "Type": "Basic",
                            "Position": {
                                "x": -3,
                                "y": 13,
                                "z": 4
                            },
                            "Properties": [
                                {
                                    "Key": "Motion State",
                                    "Value": "Grounded"
                                },
                                {
                                    "Key": "Model Variant",
                                    "Value": "3"
                                }
                            ]
                        },
                        {
                            "Name": "249b2184-32e6-4e4e-af00-c2ba62e354df",
                            "Palette": "Cathy1 Internal",
                            "Type": "Basic",
                            "Position": {
                                "x": -3,
                                "y": 14,
                                "z": 4
                            },
                            "Properties": [
                                {
                                    "Key": "Motion State",
                                    "Value": "Grounded"
                                },
                                {
                                    "Key": "Model Variant",
                                    "Value": "2"
                                }
                            ]
                        },
                        {
                            "Name": "032a22fc-ea19-457d-b4de-6230c6d63a58",
                            "Palette": "Cathy1 Internal",
                            "Type": "Basic",
                            "Position": {
                                "x": -2,
                                "y": 13,
                                "z": 4
                            },
                            "Properties": [
                                {
                                    "Key": "Motion State",
                                    "Value": "Edged"
                                },
                                {
                                    "Key": "Model Variant",
                                    "Value": "2"
                                }
                            ]
                        },
                        {
                            "Name": "d32d4677-66ec-480e-ad45-786ed7249c0b",
                            "Palette": "Cathy1 Internal",
                            "Type": "Basic",
                            "Position": {
                                "x": -1,
                                "y": 12,
                                "z": 4
                            },
                            "Properties": [
                                {
                                    "Key": "Motion State",
                                    "Value": "Edged"
                                }
                            ]
                        },
                        {
                            "Name": "f67a4862-afe4-4a2b-8921-88bc5668ddbc",
                            "Palette": "Cathy1 Internal",
                            "Type": "Basic",
                            "Position": {
                                "x": -1,
                                "y": 14,
                                "z": 4
                            },
                            "Properties": [
                                {
                                    "Key": "Motion State",
                                    "Value": "Edged"
                                }
                            ]
                        },
                        {
                            "Name": "d8196390-c967-476d-a1f5-46c88966f0a0",
                            "Palette": "Cathy1 Internal",
                            "Type": "Basic",
                            "Position": {
                                "x": 0,
                                "y": 13,
                                "z": 4
                            },
                            "Properties": [
                                {
                                    "Key": "Motion State",
                                    "Value": "Edged"
                                },
                                {
                                    "Key": "Model Variant",
                                    "Value": "2"
                                }
                            ]
                        },
                        {
                            "Name": "d7617504-c17d-4c86-9d6a-5e992d0c92ac",
                            "Palette": "Cathy1 Internal",
                            "Type": "Basic",
                            "Position": {
                                "x": 1,
                                "y": 12,
                                "z": 4
                            },
                            "Properties": [
                                {
                                    "Key": "Motion State",
                                    "Value": "Edged"
                                },
                                {
                                    "Key": "Model Variant",
                                    "Value": "3"
                                }
                            ]
                        },
                        {
                            "Name": "f6f72576-6d87-43e3-9eab-17fc4f907edc",
                            "Palette": "Cathy1 Internal",
                            "Type": "Basic",
                            "Position": {
                                "x": 1,
                                "y": 14,
                                "z": 4
                            },
                            "Properties": [
                                {
                                    "Key": "Motion State",
                                    "Value": "Edged"
                                },
                                {
                                    "Key": "Model Variant",
                                    "Value": "2"
                                }
                            ]
                        },
                        {
                            "Name": "ee753841-e08d-4325-a8ab-763a301e26bf",
                            "Palette": "Cathy1 Internal",
                            "Type": "Goal",
                            "Position": {
                                "x": 1,
                                "y": 15,
                                "z": 4
                            },
                            "Properties": [
                                {
                                    "Key": "Motion State",
                                    "Value": "Grounded"
                                },
                                {
                                    "Key": "Weight Factor",
                                    "Value": "0"
                                },
                                {
                                    "Key": "Next Stage Filename",
                                    "Value": "17.json"
                                },
                                {
                                    "Key": "Must Not Fall",
                                    "Value": "True"
                                }
                            ]
                        }
                    ],
                    "Items": [
                        {
                            "Name": "ee140fc1-09ef-4ab8-a0e0-5e160b6ba048",
                            "Palette": "Cat5 Internal",
                            "Type": "Player Start",
                            "Position": {
                                "x": -4,
                                "y": 3,
                                "z": 0
                            },
                            "Properties": [
                                {
                                    "Key": "Owning Block",
                                    "Value": "6ee85fcd-8e40-41f0-b466-ab6e62b61675"
                                },
                                {
                                    "Key": "Collectable",
                                    "Value": "False"
                                },
                                {
                                    "Key": "Uses",
                                    "Value": "0"
                                },
                                {
                                    "Key": "Trigger",
                                    "Value": "True"
                                }
                            ]
                        },
                        {
                            "Name": "aac9eac6-e81a-424d-b3bd-26c6321ba132",
                            "Palette": "Cat5 Internal",
                            "Type": "Special Collectable 2",
                            "Position": {
                                "x": 4,
                                "y": 10,
                                "z": 3
                            },
                            "Properties": [
                                {
                                    "Key": "Owning Block",
                                    "Value": "2282b00d-15ba-4dca-ae3c-5deae44ad56c"
                                },
                                {
                                    "Key": "Uses",
                                    "Value": "0"
                                },
                                {
                                    "Key": "Value",
                                    "Value": "600"
                                }
                            ]
                        },
                        {
                            "Name": "e18da5ee-3c5d-46eb-b155-5923fa6d0550",
                            "Palette": "Cat5 Internal",
                            "Type": "Special Collectable 2",
                            "Position": {
                                "x": 1,
                                "y": 13,
                                "z": 4
                            },
                            "Properties": [
                                {
                                    "Key": "Owning Block",
                                    "Value": "d7617504-c17d-4c86-9d6a-5e992d0c92ac"
                                },
                                {
                                    "Key": "Uses",
                                    "Value": "0"
                                },
                                {
                                    "Key": "Value",
                                    "Value": "600"
                                }
                            ]
                        },
                        {
                            "Name": "4b3de2e8-fb4b-4fcd-8a58-07a65ffe17e1",
                            "Palette": "Cat5 Internal",
                            "Type": "Special Collectable 1",
                            "Position": {
                                "x": 0,
                                "y": 12,
                                "z": 4
                            },
                            "Properties": [
                                {
                                    "Key": "Owning Block",
                                    "Value": "b85f3b9e-82d9-4cb9-a376-a142f1b9e53d"
                                },
                                {
                                    "Key": "Uses",
                                    "Value": "0"
                                },
                                {
                                    "Key": "Value",
                                    "Value": "300"
                                }
                            ]
                        },
                        {
                            "Name": "80f8535a-d643-49df-b2ea-0200e5d1e24c",
                            "Palette": "Cat5 Internal",
                            "Type": "Special Collectable 1",
                            "Position": {
                                "x": -2,
                                "y": 12,
                                "z": 4
                            },
                            "Properties": [
                                {
                                    "Key": "Owning Block",
                                    "Value": "a376de62-e891-4441-aaf8-898303cc7600"
                                },
                                {
                                    "Key": "Uses",
                                    "Value": "0"
                                },
                                {
                                    "Key": "Value",
                                    "Value": "300"
                                }
                            ]
                        },
                        {
                            "Name": "c2565b3e-7fda-4b96-938d-7bb6a131659f",
                            "Palette": "Cat5 Internal",
                            "Type": "Special Collectable 1",
                            "Position": {
                                "x": -1,
                                "y": 13,
                                "z": 4
                            },
                            "Properties": [
                                {
                                    "Key": "Owning Block",
                                    "Value": "d32d4677-66ec-480e-ad45-786ed7249c0b"
                                },
                                {
                                    "Key": "Uses",
                                    "Value": "0"
                                },
                                {
                                    "Key": "Value",
                                    "Value": "300"
                                }
                            ]
                        }
                    ],
                    "Events": [ ]
                }
            ]
        }
    ]
}