{
    "Name": "Stage Collection",
    "Version": "1.0 Cathy1",
    "Stages": [
        {
            "Name": "Stage",
            "Platforms": [
                {
                    "Name": "Platform",
                    "Position": {
                        "x": 0,
                        "y": 0,
                        "z": 0
                    },
                    "Blocks": [
                        {
                            "Name": "70a747ee-a752-44a9-be72-26461b83c457",
                            "Palette": "Cathy1 Internal",
                            "Type": "Basic",
                            "Position": {
                                "x": -4,
                                "y": 1,
                                "z": 0
                            },
                            "Properties": [
                                {
                                    "Key": "Motion State",
                                    "Value": "Grounded"
                                },
                                {
                                    "Key": "Model Variant",
                                    "Value": "3"
                                }
                            ]
                        },
                        {
                            "Name": "528b1054-1c7d-4399-8f6a-1128a2cb1269",
                            "Palette": "Cathy1 Internal",
                            "Type": "Basic",
                            "Position": {
                                "x": -3,
                                "y": 1,
                                "z": 0
                            },
                            "Properties": [
                                {
                                    "Key": "Motion State",
                                    "Value": "Grounded"
                                },
                                {
                                    "Key": "Model Variant",
                                    "Value": "2"
                                }
                            ]
                        },
                        {
                            "Name": "8c6c11c6-601b-482e-83aa-f1cfd8611d68",
                            "Palette": "Cathy1 Internal",
                            "Type": "Cracked (1 Step)",
                            "Position": {
                                "x": -3,
                                "y": 2,
                                "z": 1
                            },
                            "Properties": [
                                {
                                    "Key": "Motion State",
                                    "Value": "Edged"
                                },
                                {
                                    "Key": "Steps Remaining",
                                    "Value": "1"
                                }
                            ]
                        },
                        {
                            "Name": "310e9fcb-dee3-4f4f-bb1c-aea07d96eb72",
                            "Palette": "Cathy1 Internal",
                            "Type": "Cracked (1 Step)",
                            "Position": {
                                "x": -4,
                                "y": 2,
                                "z": 1
                            },
                            "Properties": [
                                {
                                    "Key": "Motion State",
                                    "Value": "Edged"
                                },
                                {
                                    "Key": "Steps Remaining",
                                    "Value": "1"
                                }
                            ]
                        },
                        {
                            "Name": "4c339de9-2279-40fc-8451-018856ecc09c",
                            "Palette": "Cathy1 Internal",
                            "Type": "Cracked (1 Step)",
                            "Position": {
                                "x": -4,
                                "y": 3,
                                "z": 1
                            },
                            "Properties": [
                                {
                                    "Key": "Motion State",
                                    "Value": "Grounded"
                                },
                                {
                                    "Key": "Steps Remaining",
                                    "Value": "1"
                                }
                            ]
                        },
                        {
                            "Name": "1cb928ad-38a5-419b-8e8d-e57877da7024",
                            "Palette": "Cathy1 Internal",
                            "Type": "Cracked (1 Step)",
                            "Position": {
                                "x": -4,
                                "y": 4,
                                "z": 1
                            },
                            "Properties": [
                                {
                                    "Key": "Motion State",
                                    "Value": "Grounded"
                                },
                                {
                                    "Key": "Steps Remaining",
                                    "Value": "1"
                                }
                            ]
                        },
                        {
                            "Name": "e1daffd5-84db-4892-825b-f222a282f0ce",
                            "Palette": "Cathy1 Internal",
                            "Type": "Cracked (1 Step)",
                            "Position": {
                                "x": -4,
                                "y": 5,
                                "z": 1
                            },
                            "Properties": [
                                {
                                    "Key": "Motion State",
                                    "Value": "Grounded"
                                },
                                {
                                    "Key": "Steps Remaining",
                                    "Value": "1"
                                }
                            ]
                        },
                        {
                            "Name": "c9516900-69c2-473f-937a-b077da26d7a5",
                            "Palette": "Cathy1 Internal",
                            "Type": "Cracked (1 Step)",
                            "Position": {
                                "x": -3,
                                "y": 5,
                                "z": 1
                            },
                            "Properties": [
                                {
                                    "Key": "Motion State",
                                    "Value": "Grounded"
                                },
                                {
                                    "Key": "Steps Remaining",
                                    "Value": "1"
                                }
                            ]
                        },
                        {
                            "Name": "e084f021-70e9-40c2-a4d6-6026c54ccc4d",
                            "Palette": "Cathy1 Internal",
                            "Type": "Cracked (1 Step)",
                            "Position": {
                                "x": -3,
                                "y": 4,
                                "z": 1
                            },
                            "Properties": [
                                {
                                    "Key": "Motion State",
                                    "Value": "Grounded"
                                },
                                {
                                    "Key": "Steps Remaining",
                                    "Value": "1"
                                }
                            ]
                        },
                        {
                            "Name": "5ef98330-3c81-4e5c-802f-b0ee33cfb89e",
                            "Palette": "Cathy1 Internal",
                            "Type": "Cracked (1 Step)",
                            "Position": {
                                "x": -3,
                                "y": 3,
                                "z": 1
                            },
                            "Properties": [
                                {
                                    "Key": "Motion State",
                                    "Value": "Grounded"
                                },
                                {
                                    "Key": "Steps Remaining",
                                    "Value": "1"
                                }
                            ]
                        },
                        {
                            "Name": "8513f56b-d68f-47a1-9e76-1790001a664d",
                            "Palette": "Cathy1 Internal",
                            "Type": "Basic",
                            "Position": {
                                "x": 0,
                                "y": 1,
                                "z": 0
                            },
                            "Properties": [
                                {
                                    "Key": "Motion State",
                                    "Value": "Grounded"
                                },
                                {
                                    "Key": "Model Variant",
                                    "Value": "2"
                                }
                            ]
                        },
                        {
                            "Name": "cd27dd8b-ff62-4286-9990-669529c9808e",
                            "Palette": "Cathy1 Internal",
                            "Type": "Basic",
                            "Position": {
                                "x": 1,
                                "y": 1,
                                "z": 0
                            },
                            "Properties": [
                                {
                                    "Key": "Motion State",
                                    "Value": "Grounded"
                                },
                                {
                                    "Key": "Model Variant",
                                    "Value": "2"
                                }
                            ]
                        },
                        {
                            "Name": "0c9a4072-1d9a-48ce-b96c-c056544434bd",
                            "Palette": "Cathy1 Internal",
                            "Type": "Basic",
                            "Position": {
                                "x": 2,
                                "y": 1,
                                "z": 0
                            },
                            "Properties": [
                                {
                                    "Key": "Motion State",
                                    "Value": "Grounded"
                                }
                            ]
                        },
                        {
                            "Name": "54c8a907-e3c6-4d5b-8d89-4dab231e79e3",
                            "Palette": "Cathy1 Internal",
                            "Type": "Basic",
                            "Position": {
                                "x": 3,
                                "y": 1,
                                "z": 0
                            },
                            "Properties": [
                                {
                                    "Key": "Motion State",
                                    "Value": "Grounded"
                                },
                                {
                                    "Key": "Model Variant",
                                    "Value": "3"
                                }
                            ]
                        },
                        {
                            "Name": "5e9b594b-24d5-469a-bcce-a90f0d2acddd",
                            "Palette": "Cathy1 Internal",
                            "Type": "Basic",
                            "Position": {
                                "x": -1,
                                "y": 1,
                                "z": 1
                            },
                            "Properties": [
                                {
                                    "Key": "Motion State",
                                    "Value": "Grounded"
                                },
                                {
                                    "Key": "Model Variant",
                                    "Value": "2"
                                }
                            ]
                        },
                        {
                            "Name": "6c14e4fe-c5cc-4650-b586-018f934f7ca9",
                            "Palette": "Cathy1 Internal",
                            "Type": "Basic",
                            "Position": {
                                "x": -1,
                                "y": 2,
                                "z": 1
                            },
                            "Properties": [
                                {
                                    "Key": "Motion State",
                                    "Value": "Grounded"
                                },
                                {
                                    "Key": "Model Variant",
                                    "Value": "3"
                                }
                            ]
                        },
                        {
                            "Name": "e3109c48-d23a-4f10-98a6-1ee56d7ffbf3",
                            "Palette": "Cathy1 Internal",
                            "Type": "Basic",
                            "Position": {
                                "x": 2,
                                "y": 2,
                                "z": 1
                            },
                            "Properties": [
                                {
                                    "Key": "Motion State",
                                    "Value": "Edged"
                                },
                                {
                                    "Key": "Model Variant",
                                    "Value": "3"
                                }
                            ]
                        },
                        {
                            "Name": "03458359-ef63-4f27-8c27-0f90348e410c",
                            "Palette": "Cathy1 Internal",
                            "Type": "Basic",
                            "Position": {
                                "x": 2,
                                "y": 3,
                                "z": 1
                            },
                            "Properties": [
                                {
                                    "Key": "Motion State",
                                    "Value": "Grounded"
                                },
                                {
                                    "Key": "Model Variant",
                                    "Value": "2"
                                }
                            ]
                        },
                        {
                            "Name": "d33dff5e-7dc9-4317-82c7-76c86d240544",
                            "Palette": "Cathy1 Internal",
                            "Type": "Basic",
                            "Position": {
                                "x": 2,
                                "y": 4,
                                "z": 1
                            },
                            "Properties": [
                                {
                                    "Key": "Motion State",
                                    "Value": "Grounded"
                                },
                                {
                                    "Key": "Model Variant",
                                    "Value": "3"
                                }
                            ]
                        },
                        {
                            "Name": "0f0ead52-64f3-422a-93c9-7fb45f35a64f",
                            "Palette": "Cathy1 Internal",
                            "Type": "Basic",
                            "Position": {
                                "x": 3,
                                "y": 4,
                                "z": 1
                            },
                            "Properties": [
                                {
                                    "Key": "Motion State",
                                    "Value": "Grounded"
                                },
                                {
                                    "Key": "Model Variant",
                                    "Value": "2"
                                }
                            ]
                        },
                        {
                            "Name": "0e17f4cd-e4b0-4fe2-9a75-06316eeabe23",
                            "Palette": "Cathy1 Internal",
                            "Type": "Basic",
                            "Position": {
                                "x": 3,
                                "y": 3,
                                "z": 1
                            },
                            "Properties": [
                                {
                                    "Key": "Motion State",
                                    "Value": "Grounded"
                                },
                                {
                                    "Key": "Model Variant",
                                    "Value": "2"
                                }
                            ]
                        },
                        {
                            "Name": "564af1e6-fd53-44d8-b552-fe6ad2a98053",
                            "Palette": "Cathy1 Internal",
                            "Type": "Basic",
                            "Position": {
                                "x": 3,
                                "y": 2,
                                "z": 1
                            },
                            "Properties": [
                                {
                                    "Key": "Motion State",
                                    "Value": "Edged"
                                },
                                {
                                    "Key": "Model Variant",
                                    "Value": "2"
                                }
                            ]
                        },
                        {
                            "Name": "fb21ae3d-6e37-4d9e-9996-1f2f25138691",
                            "Palette": "Cathy1 Internal",
                            "Type": "Basic",
                            "Position": {
                                "x": 1,
                                "y": 4,
                                "z": 1
                            },
                            "Properties": [
                                {
                                    "Key": "Motion State",
                                    "Value": "Edged"
                                },
                                {
                                    "Key": "Model Variant",
                                    "Value": "2"
                                }
                            ]
                        },
                        {
                            "Name": "f68bec83-fe3a-45f4-97e2-1cd42a636f10",
                            "Palette": "Cathy1 Internal",
                            "Type": "Basic",
                            "Position": {
                                "x": 1,
                                "y": 5,
                                "z": 1
                            },
                            "Properties": [
                                {
                                    "Key": "Motion State",
                                    "Value": "Grounded"
                                }
                            ]
                        },
                        {
                            "Name": "4e8e8355-32a3-43f1-8e4f-66f27f6037f4",
                            "Palette": "Cathy1 Internal",
                            "Type": "Basic",
                            "Position": {
                                "x": 1,
                                "y": 6,
                                "z": 1
                            },
                            "Properties": [
                                {
                                    "Key": "Motion State",
                                    "Value": "Grounded"
                                },
                                {
                                    "Key": "Model Variant",
                                    "Value": "2"
                                }
                            ]
                        },
                        {
                            "Name": "b17b2b70-3dce-47c4-af19-3b76e0c07c01",
                            "Palette": "Cathy1 Internal",
                            "Type": "Basic",
                            "Position": {
                                "x": 0,
                                "y": 5,
                                "z": 1
                            },
                            "Properties": [
                                {
                                    "Key": "Motion State",
                                    "Value": "Edged"
                                },
                                {
                                    "Key": "Model Variant",
                                    "Value": "2"
                                }
                            ]
                        },
                        {
                            "Name": "fec14dd3-007e-4371-aacb-98860e920579",
                            "Palette": "Cathy1 Internal",
                            "Type": "Basic",
                            "Position": {
                                "x": 2,
                                "y": 6,
                                "z": 1
                            },
                            "Properties": [
                                {
                                    "Key": "Motion State",
                                    "Value": "Edged"
                                },
                                {
                                    "Key": "Model Variant",
                                    "Value": "3"
                                }
                            ]
                        },
                        {
                            "Name": "6eee8245-54fe-4661-a147-2085ab90dbbc",
                            "Palette": "Cathy1 Internal",
                            "Type": "Basic",
                            "Position": {
                                "x": 2,
                                "y": 7,
                                "z": 1
                            },
                            "Properties": [
                                {
                                    "Key": "Motion State",
                                    "Value": "Grounded"
                                },
                                {
                                    "Key": "Model Variant",
                                    "Value": "3"
                                }
                            ]
                        },
                        {
                            "Name": "b248a37b-fc15-492e-8421-8136e70e248b",
                            "Palette": "Cathy1 Internal",
                            "Type": "Basic",
                            "Position": {
                                "x": 3,
                                "y": 7,
                                "z": 1
                            },
                            "Properties": [
                                {
                                    "Key": "Motion State",
                                    "Value": "Edged"
                                }
                            ]
                        },
                        {
                            "Name": "682af28f-2c63-4b9d-93b8-02bdce61ae17",
                            "Palette": "Cathy1 Internal",
                            "Type": "Goal",
                            "Position": {
                                "x": 3,
                                "y": 8,
                                "z": 1
                            },
                            "Properties": [
                                {
                                    "Key": "Motion State",
                                    "Value": "Grounded"
                                },
                                {
                                    "Key": "Weight Factor",
                                    "Value": "0"
                                },
                                {
                                    "Key": "Next Stage Filename",
                                    "Value": "8.json"
                                },
                                {
                                    "Key": "Must Not Fall",
                                    "Value": "True"
                                }
                            ]
                        }
                    ],
                    "Items": [
                        {
                            "Name": "39573c4a-2563-497b-af4d-52f37a2089fc",
                            "Palette": "Cat5 Internal",
                            "Type": "Player Start",
                            "Position": {
                                "x": -4,
                                "y": 2,
                                "z": 0
                            },
                            "Properties": [
                                {
                                    "Key": "Owning Block",
                                    "Value": "70a747ee-a752-44a9-be72-26461b83c457"
                                },
                                {
                                    "Key": "Collectable",
                                    "Value": "False"
                                },
                                {
                                    "Key": "Uses",
                                    "Value": "0"
                                },
                                {
                                    "Key": "Trigger",
                                    "Value": "True"
                                },
                                {
                                    "Key": "Model Variant",
                                    "Value": "2"
                                },
                                {
                                    "Key": "Player Number",
                                    "Value": "1"
                                }
                            ]
                        },
                        {
                            "Name": "640ef2c0-7ad8-4265-aab3-faa0ad8a9cea",
                            "Palette": "Cat5 Internal",
                            "Type": "Special Collectable 2",
                            "Position": {
                                "x": -1,
                                "y": 3,
                                "z": 1
                            },
                            "Properties": [
                                {
                                    "Key": "Owning Block",
                                    "Value": "6c14e4fe-c5cc-4650-b586-018f934f7ca9"
                                },
                                {
                                    "Key": "Uses",
                                    "Value": "0"
                                },
                                {
                                    "Key": "Model Variant",
                                    "Value": "2"
                                },
                                {
                                    "Key": "Value",
                                    "Value": "600"
                                }
                            ]
                        }
                    ],
                    "Events": [ ]
                }
            ]
        }
    ]
}