{
    "Name": "Stage Collection",
    "Version": "1.0 Cathy1",
    "Stages": [
        {
            "Name": "Stage",
            "Platforms": [
                {
                    "Name": "Platform",
                    "Position": {
                        "x": 0,
                        "y": 0,
                        "z": 0
                    },
                    "Blocks": [
                        {
                            "Name": "d17f833f-c5c4-410a-8a8d-a7792f3aa185",
                            "Palette": "Cathy1 Internal",
                            "Type": "Basic",
                            "Position": {
                                "x": 0,
                                "y": 1,
                                "z": 0
                            },
                            "Properties": [
                                {
                                    "Key": "Motion State",
                                    "Value": "Grounded"
                                },
                                {
                                    "Key": "Model Variant",
                                    "Value": "2"
                                }
                            ]
                        },
                        {
                            "Name": "a63d3364-ecdb-4511-b112-f967fedde2af",
                            "Palette": "Cathy1 Internal",
                            "Type": "Basic",
                            "Position": {
                                "x": 1,
                                "y": 1,
                                "z": 0
                            },
                            "Properties": [
                                {
                                    "Key": "Motion State",
                                    "Value": "Grounded"
                                },
                                {
                                    "Key": "Model Variant",
                                    "Value": "3"
                                }
                            ]
                        },
                        {
                            "Name": "52a00980-503d-45d4-a724-ad724d635795",
                            "Palette": "Cathy1 Internal",
                            "Type": "Basic",
                            "Position": {
                                "x": 2,
                                "y": 1,
                                "z": 0
                            },
                            "Properties": [
                                {
                                    "Key": "Motion State",
                                    "Value": "Grounded"
                                },
                                {
                                    "Key": "Model Variant",
                                    "Value": "3"
                                }
                            ]
                        },
                        {
                            "Name": "597c0018-b94e-41ef-bb99-0fc13b34f2c0",
                            "Palette": "Cathy1 Internal",
                            "Type": "Basic",
                            "Position": {
                                "x": 3,
                                "y": 1,
                                "z": 0
                            },
                            "Properties": [
                                {
                                    "Key": "Motion State",
                                    "Value": "Grounded"
                                },
                                {
                                    "Key": "Model Variant",
                                    "Value": "3"
                                }
                            ]
                        },
                        {
                            "Name": "88c40cca-5c89-496a-a537-de3a2f44dc76",
                            "Palette": "Cathy1 Internal",
                            "Type": "Basic",
                            "Position": {
                                "x": 4,
                                "y": 1,
                                "z": 0
                            },
                            "Properties": [
                                {
                                    "Key": "Motion State",
                                    "Value": "Grounded"
                                },
                                {
                                    "Key": "Model Variant",
                                    "Value": "2"
                                }
                            ]
                        },
                        {
                            "Name": "fc9600b6-7d4c-4ecc-b0ea-ce3d90949717",
                            "Palette": "Cathy1 Internal",
                            "Type": "Basic",
                            "Position": {
                                "x": 5,
                                "y": 1,
                                "z": 0
                            },
                            "Properties": [
                                {
                                    "Key": "Motion State",
                                    "Value": "Grounded"
                                },
                                {
                                    "Key": "Model Variant",
                                    "Value": "3"
                                }
                            ]
                        },
                        {
                            "Name": "f3ec694d-defb-4388-b24e-35b5fe31cafa",
                            "Palette": "Cathy1 Internal",
                            "Type": "Basic",
                            "Position": {
                                "x": 6,
                                "y": 1,
                                "z": 0
                            },
                            "Properties": [
                                {
                                    "Key": "Motion State",
                                    "Value": "Grounded"
                                },
                                {
                                    "Key": "Model Variant",
                                    "Value": "2"
                                }
                            ]
                        },
                        {
                            "Name": "d5e35e00-05c0-4a0a-be33-ad2956da6c57",
                            "Palette": "Cathy1 Internal",
                            "Type": "Basic",
                            "Position": {
                                "x": 7,
                                "y": 1,
                                "z": 0
                            },
                            "Properties": [
                                {
                                    "Key": "Motion State",
                                    "Value": "Grounded"
                                },
                                {
                                    "Key": "Model Variant",
                                    "Value": "3"
                                }
                            ]
                        },
                        {
                            "Name": "947c9a66-14a9-4cc7-852a-ead8b199dcce",
                            "Palette": "Cathy1 Internal",
                            "Type": "Basic",
                            "Position": {
                                "x": 8,
                                "y": 1,
                                "z": 0
                            },
                            "Properties": [
                                {
                                    "Key": "Motion State",
                                    "Value": "Grounded"
                                },
                                {
                                    "Key": "Model Variant",
                                    "Value": "3"
                                }
                            ]
                        },
                        {
                            "Name": "ed9fe6c7-e8cd-44b0-9340-c70e73c1b361",
                            "Palette": "Cathy1 Internal",
                            "Type": "Immobile",
                            "Position": {
                                "x": 5,
                                "y": 2,
                                "z": 0
                            },
                            "Properties": [
                                {
                                    "Key": "Motion State",
                                    "Value": "Grounded"
                                },
                                {
                                    "Key": "Weight Factor",
                                    "Value": "0"
                                }
                            ]
                        },
                        {
                            "Name": "60ea102c-5e39-436c-a26d-73eac3ff73e7",
                            "Palette": "Cathy1 Internal",
                            "Type": "Immobile",
                            "Position": {
                                "x": 5,
                                "y": 3,
                                "z": 0
                            },
                            "Properties": [
                                {
                                    "Key": "Motion State",
                                    "Value": "Grounded"
                                },
                                {
                                    "Key": "Weight Factor",
                                    "Value": "0"
                                }
                            ]
                        },
                        {
                            "Name": "d3207730-cbd2-4330-b4d1-44012177ee65",
                            "Palette": "Cathy1 Internal",
                            "Type": "Immobile",
                            "Position": {
                                "x": 5,
                                "y": 4,
                                "z": 0
                            },
                            "Properties": [
                                {
                                    "Key": "Motion State",
                                    "Value": "Grounded"
                                },
                                {
                                    "Key": "Weight Factor",
                                    "Value": "0"
                                }
                            ]
                        },
                        {
                            "Name": "0dca1e5a-84f0-401c-8c1b-d5625f9befab",
                            "Palette": "Cathy1 Internal",
                            "Type": "Goal",
                            "Position": {
                                "x": 8,
                                "y": 2,
                                "z": 0
                            },
                            "Properties": [
                                {
                                    "Key": "Motion State",
                                    "Value": "Grounded"
                                },
                                {
                                    "Key": "Weight Factor",
                                    "Value": "0"
                                },
                                {
                                    "Key": "Next Stage Filename",
                                    "Value": "Tutorial3.json"
                                }
                            ]
                        },
                        {
                            "Name": "a337326c-0757-4b51-a489-5969ef6b27e4",
                            "Palette": "Bloxels Internal",
                            "Type": "Story",
                            "Position": {
                                "x": -4,
                                "y": 4,
                                "z": 0
                            },
                            "Properties": [
                                {
                                    "Key": "Motion State",
                                    "Value": "Grounded"
                                },
                                {
                                    "Key": "Gravity Factor",
                                    "Value": "0"
                                },
                                {
                                    "Key": "Text",
                                    "Value": "You can hang on the edges of blocks\nand even move while hanging"
                                },
                                {
                                    "Key": "Color (#rrggbb)",
                                    "Value": "#ffff00"
                                },
                                {
                                    "Key": "Size",
                                    "Value": "10"
                                }
                            ]
                        },
                        {
                            "Name": "a861b157-e9e3-4587-9383-09d3e14eae41",
                            "Palette": "Bloxels Internal",
                            "Type": "Story",
                            "Position": {
                                "x": -4,
                                "y": 3,
                                "z": 0
                            },
                            "Properties": [
                                {
                                    "Key": "Motion State",
                                    "Value": "Grounded"
                                },
                                {
                                    "Key": "Gravity Factor",
                                    "Value": "0"
                                },
                                {
                                    "Key": "Text",
                                    "Value": "Try jumping off, you will see!"
                                },
                                {
                                    "Key": "Color (#rrggbb)",
                                    "Value": "#ffffff"
                                },
                                {
                                    "Key": "Size",
                                    "Value": "6"
                                }
                            ]
                        },
                        {
                            "Name": "f0a8cb3b-5ae8-4daa-aeed-f40bbd9b75bc",
                            "Palette": "Bloxels Internal",
                            "Type": "Story",
                            "Position": {
                                "x": -4,
                                "y": 2,
                                "z": 1
                            },
                            "Properties": [
                                {
                                    "Key": "Motion State",
                                    "Value": "Grounded"
                                },
                                {
                                    "Key": "Gravity Factor",
                                    "Value": "0"
                                },
                                {
                                    "Key": "Text",
                                    "Value": "While hanging, press up to climb on top and down to let go"
                                },
                                {
                                    "Key": "Color (#rrggbb)",
                                    "Value": "#ffffff"
                                },
                                {
                                    "Key": "Size",
                                    "Value": "6"
                                }
                            ]
                        }
                    ],
                    "Items": [
                        {
                            "Name": "0533f725-4882-471f-9983-e1dc172794f7",
                            "Palette": "Cat5 Internal",
                            "Type": "Player Start",
                            "Position": {
                                "x": 0,
                                "y": 2,
                                "z": 0
                            },
                            "Properties": [
                                {
                                    "Key": "Owning Block",
                                    "Value": "d17f833f-c5c4-410a-8a8d-a7792f3aa185"
                                },
                                {
                                    "Key": "Collectable",
                                    "Value": "False"
                                },
                                {
                                    "Key": "Uses",
                                    "Value": "0"
                                },
                                {
                                    "Key": "Trigger",
                                    "Value": "True"
                                }
                            ]
                        }
                    ],
                    "Events": [ ]
                }
            ]
        }
    ]
}