%YAML 1.1
%TAG !u! tag:unity3d.com,2011:
--- !u!1001 &100100000
Prefab:
  m_ObjectHideFlags: 1
  serializedVersion: 2
  m_Modification:
    m_TransformParent: {fileID: 0}
    m_Modifications: []
    m_RemovedComponents: []
  m_ParentPrefab: {fileID: 0}
  m_RootGameObject: {fileID: 1620753784027936}
  m_IsPrefabParent: 1
--- !u!1 &1620753784027936
GameObject:
  m_ObjectHideFlags: 0
  m_PrefabParentObject: {fileID: 0}
  m_PrefabInternal: {fileID: 100100000}
  serializedVersion: 5
  m_Component:
  - component: {fileID: 4367636826507098}
  - component: {fileID: 65596532242444746}
  - component: {fileID: 54033997339104180}
  - component: {fileID: 114742587667361470}
  m_Layer: 0
  m_Name: Cathy1 Cracked 2 Step Block Prefab
  m_TagString: Untagged
  m_Icon: {fileID: 0}
  m_NavMeshLayer: 0
  m_StaticEditorFlags: 0
  m_IsActive: 1
--- !u!4 &4367636826507098
Transform:
  m_ObjectHideFlags: 1
  m_PrefabParentObject: {fileID: 0}
  m_PrefabInternal: {fileID: 100100000}
  m_GameObject: {fileID: 1620753784027936}
  m_LocalRotation: {x: 0, y: 0, z: 0, w: 1}
  m_LocalPosition: {x: 0, y: 0, z: 0}
  m_LocalScale: {x: 1, y: 1, z: 1}
  m_Children: []
  m_Father: {fileID: 0}
  m_RootOrder: 0
  m_LocalEulerAnglesHint: {x: 0, y: 0, z: 0}
--- !u!54 &54033997339104180
Rigidbody:
  m_ObjectHideFlags: 1
  m_PrefabParentObject: {fileID: 0}
  m_PrefabInternal: {fileID: 100100000}
  m_GameObject: {fileID: 1620753784027936}
  serializedVersion: 2
  m_Mass: 3
  m_Drag: 1.1
  m_AngularDrag: 0
  m_UseGravity: 0
  m_IsKinematic: 0
  m_Interpolate: 0
  m_Constraints: 126
  m_CollisionDetection: 0
--- !u!65 &65596532242444746
BoxCollider:
  m_ObjectHideFlags: 1
  m_PrefabParentObject: {fileID: 0}
  m_PrefabInternal: {fileID: 100100000}
  m_GameObject: {fileID: 1620753784027936}
  m_Material: {fileID: 13400000, guid: f1413bb833c313449a6a6c8dd219e7be, type: 2}
  m_IsTrigger: 0
  m_Enabled: 1
  serializedVersion: 2
  m_Size: {x: 1, y: 1, z: 1}
  m_Center: {x: 0, y: 0, z: 0}
--- !u!114 &114742587667361470
MonoBehaviour:
  m_ObjectHideFlags: 1
  m_PrefabParentObject: {fileID: 0}
  m_PrefabInternal: {fileID: 100100000}
  m_GameObject: {fileID: 1620753784027936}
  m_Enabled: 1
  m_EditorHideFlags: 0
  m_Script: {fileID: 11500000, guid: 5c82915ae58ded74da9171d2d399aadb, type: 3}
  m_Name: 
  m_EditorClassIdentifier: 
  Icon: {fileID: 21300000, guid: 90ac461e7c05e3949aa87d8ecbf867aa, type: 3}
  Palette: 
  EdgeEffect: {fileID: 19800000, guid: bda064cbb7d5f114cbcfbf74b67a2a10, type: 2}
  EdgeEffectScale: 1
  EdgeEffectDuration: 0.1
  _motionState: 0
  BelowCount: 0
  AboveCount: 0
  BlockDown: 
  BlockDownLeft: 
  BlockDownRight: 
  BlockDownForward: 
  BlockDownBack: 
  _gravityEnabled: 0
  Model1: {fileID: 0}
  Model2: {fileID: 0}
  Model3: {fileID: 0}
  Model4: {fileID: 0}
  CurrentModel: {fileID: 0}
  CurrentModelNumber: 0
  TypeOfBlock: Cracked (2 Steps)
  StepsRemaining: 2
  Crack: {fileID: 0}
  Collapse: {fileID: 0}
  Dust: {fileID: 0}
  DustOffset: {x: 0, y: 0, z: 0}
